pixelArray_tb.vcd
$date
	Tue Nov 16 12:03:17 2021
$end
$version
	Icarus Verilog
$end
$timescale
	1ps
$end
$scope module pixelArray_tb $end
$var wire 1 ! anaReset $end
$var wire 32 " pixData [31:0] $end
$var wire 1 # anaRamp $end
$var wire 1 $ anaBias1 $end
$var reg 1 % clk $end
$var reg 1 & convert $end
$var reg 32 ' data [31:0] $end
$var reg 1 ( erase $end
$var reg 1 ) expose $end
$var reg 3 * next_state [2:0] $end
$var reg 32 + pixelDataOut [31:0] $end
$var reg 4 , read [3:0] $end
$var reg 1 - reset $end
$var reg 3 . state [2:0] $end
$var integer 32 / counter [31:0] $end
$scope module pa1 $end
$var wire 32 0 DATA [31:0] $end
$var wire 1 ( ERASE $end
$var wire 1 ) EXPOSE $end
$var wire 1 # RAMP $end
$var wire 4 1 READ [3:0] $end
$var wire 1 ! RESET $end
$var wire 1 $ VBN1 $end
$scope begin genblk1[0] $end
$scope begin genblk2[0] $end
$scope module ps $end
$var wire 8 2 DATA [7:0] $end
$var wire 1 ( ERASE $end
$var wire 1 ) EXPOSE $end
$var wire 1 # RAMP $end
$var wire 1 3 READ $end
$var wire 1 ! RESET $end
$var wire 1 $ VBN1 $end
$var reg 1 4 cmp $end
$var reg 8 5 p_data [7:0] $end
$var real 1 6 adc $end
$var real 1 7 dv_pixel $end
$var real 1 8 lsb $end
$var real 1 9 tmp $end
$var real 1 : v_erase $end
$upscope $end
$upscope $end
$scope begin genblk2[1] $end
$scope module ps $end
$var wire 8 ; DATA [7:0] $end
$var wire 1 ( ERASE $end
$var wire 1 ) EXPOSE $end
$var wire 1 # RAMP $end
$var wire 1 < READ $end
$var wire 1 ! RESET $end
$var wire 1 $ VBN1 $end
$var reg 1 = cmp $end
$var reg 8 > p_data [7:0] $end
$var real 1 ? adc $end
$var real 1 @ dv_pixel $end
$var real 1 A lsb $end
$var real 1 B tmp $end
$var real 1 C v_erase $end
$upscope $end
$upscope $end
$scope begin genblk2[2] $end
$scope module ps $end
$var wire 8 D DATA [7:0] $end
$var wire 1 ( ERASE $end
$var wire 1 ) EXPOSE $end
$var wire 1 # RAMP $end
$var wire 1 E READ $end
$var wire 1 ! RESET $end
$var wire 1 $ VBN1 $end
$var reg 1 F cmp $end
$var reg 8 G p_data [7:0] $end
$var real 1 H adc $end
$var real 1 I dv_pixel $end
$var real 1 J lsb $end
$var real 1 K tmp $end
$var real 1 L v_erase $end
$upscope $end
$upscope $end
$scope begin genblk2[3] $end
$scope module ps $end
$var wire 8 M DATA [7:0] $end
$var wire 1 ( ERASE $end
$var wire 1 ) EXPOSE $end
$var wire 1 # RAMP $end
$var wire 1 N READ $end
$var wire 1 ! RESET $end
$var wire 1 $ VBN1 $end
$var reg 1 O cmp $end
$var reg 8 P p_data [7:0] $end
$var real 1 Q adc $end
$var real 1 R dv_pixel $end
$var real 1 S lsb $end
$var real 1 T tmp $end
$var real 1 U v_erase $end
$upscope $end
$upscope $end
$upscope $end
$scope begin genblk1[1] $end
$scope begin genblk2[0] $end
$scope module ps $end
$var wire 8 V DATA [7:0] $end
$var wire 1 ( ERASE $end
$var wire 1 ) EXPOSE $end
$var wire 1 # RAMP $end
$var wire 1 W READ $end
$var wire 1 ! RESET $end
$var wire 1 $ VBN1 $end
$var reg 1 X cmp $end
$var reg 8 Y p_data [7:0] $end
$var real 1 Z adc $end
$var real 1 [ dv_pixel $end
$var real 1 \ lsb $end
$var real 1 ] tmp $end
$var real 1 ^ v_erase $end
$upscope $end
$upscope $end
$scope begin genblk2[1] $end
$scope module ps $end
$var wire 8 _ DATA [7:0] $end
$var wire 1 ( ERASE $end
$var wire 1 ) EXPOSE $end
$var wire 1 # RAMP $end
$var wire 1 ` READ $end
$var wire 1 ! RESET $end
$var wire 1 $ VBN1 $end
$var reg 1 a cmp $end
$var reg 8 b p_data [7:0] $end
$var real 1 c adc $end
$var real 1 d dv_pixel $end
$var real 1 e lsb $end
$var real 1 f tmp $end
$var real 1 g v_erase $end
$upscope $end
$upscope $end
$scope begin genblk2[2] $end
$scope module ps $end
$var wire 8 h DATA [7:0] $end
$var wire 1 ( ERASE $end
$var wire 1 ) EXPOSE $end
$var wire 1 # RAMP $end
$var wire 1 i READ $end
$var wire 1 ! RESET $end
$var wire 1 $ VBN1 $end
$var reg 1 j cmp $end
$var reg 8 k p_data [7:0] $end
$var real 1 l adc $end
$var real 1 m dv_pixel $end
$var real 1 n lsb $end
$var real 1 o tmp $end
$var real 1 p v_erase $end
$upscope $end
$upscope $end
$scope begin genblk2[3] $end
$scope module ps $end
$var wire 8 q DATA [7:0] $end
$var wire 1 ( ERASE $end
$var wire 1 ) EXPOSE $end
$var wire 1 # RAMP $end
$var wire 1 r READ $end
$var wire 1 ! RESET $end
$var wire 1 $ VBN1 $end
$var reg 1 s cmp $end
$var reg 8 t p_data [7:0] $end
$var real 1 u adc $end
$var real 1 v dv_pixel $end
$var real 1 w lsb $end
$var real 1 x tmp $end
$var real 1 y v_erase $end
$upscope $end
$upscope $end
$upscope $end
$scope begin genblk1[2] $end
$scope begin genblk2[0] $end
$scope module ps $end
$var wire 8 z DATA [7:0] $end
$var wire 1 ( ERASE $end
$var wire 1 ) EXPOSE $end
$var wire 1 # RAMP $end
$var wire 1 { READ $end
$var wire 1 ! RESET $end
$var wire 1 $ VBN1 $end
$var reg 1 | cmp $end
$var reg 8 } p_data [7:0] $end
$var real 1 ~ adc $end
$var real 1 !" dv_pixel $end
$var real 1 "" lsb $end
$var real 1 #" tmp $end
$var real 1 $" v_erase $end
$upscope $end
$upscope $end
$scope begin genblk2[1] $end
$scope module ps $end
$var wire 8 %" DATA [7:0] $end
$var wire 1 ( ERASE $end
$var wire 1 ) EXPOSE $end
$var wire 1 # RAMP $end
$var wire 1 &" READ $end
$var wire 1 ! RESET $end
$var wire 1 $ VBN1 $end
$var reg 1 '" cmp $end
$var reg 8 (" p_data [7:0] $end
$var real 1 )" adc $end
$var real 1 *" dv_pixel $end
$var real 1 +" lsb $end
$var real 1 ," tmp $end
$var real 1 -" v_erase $end
$upscope $end
$upscope $end
$scope begin genblk2[2] $end
$scope module ps $end
$var wire 8 ." DATA [7:0] $end
$var wire 1 ( ERASE $end
$var wire 1 ) EXPOSE $end
$var wire 1 # RAMP $end
$var wire 1 /" READ $end
$var wire 1 ! RESET $end
$var wire 1 $ VBN1 $end
$var reg 1 0" cmp $end
$var reg 8 1" p_data [7:0] $end
$var real 1 2" adc $end
$var real 1 3" dv_pixel $end
$var real 1 4" lsb $end
$var real 1 5" tmp $end
$var real 1 6" v_erase $end
$upscope $end
$upscope $end
$scope begin genblk2[3] $end
$scope module ps $end
$var wire 8 7" DATA [7:0] $end
$var wire 1 ( ERASE $end
$var wire 1 ) EXPOSE $end
$var wire 1 # RAMP $end
$var wire 1 8" READ $end
$var wire 1 ! RESET $end
$var wire 1 $ VBN1 $end
$var reg 1 9" cmp $end
$var reg 8 :" p_data [7:0] $end
$var real 1 ;" adc $end
$var real 1 <" dv_pixel $end
$var real 1 =" lsb $end
$var real 1 >" tmp $end
$var real 1 ?" v_erase $end
$upscope $end
$upscope $end
$upscope $end
$scope begin genblk1[3] $end
$scope begin genblk2[0] $end
$scope module ps $end
$var wire 8 @" DATA [7:0] $end
$var wire 1 ( ERASE $end
$var wire 1 ) EXPOSE $end
$var wire 1 # RAMP $end
$var wire 1 A" READ $end
$var wire 1 ! RESET $end
$var wire 1 $ VBN1 $end
$var reg 1 B" cmp $end
$var reg 8 C" p_data [7:0] $end
$var real 1 D" adc $end
$var real 1 E" dv_pixel $end
$var real 1 F" lsb $end
$var real 1 G" tmp $end
$var real 1 H" v_erase $end
$upscope $end
$upscope $end
$scope begin genblk2[1] $end
$scope module ps $end
$var wire 8 I" DATA [7:0] $end
$var wire 1 ( ERASE $end
$var wire 1 ) EXPOSE $end
$var wire 1 # RAMP $end
$var wire 1 J" READ $end
$var wire 1 ! RESET $end
$var wire 1 $ VBN1 $end
$var reg 1 K" cmp $end
$var reg 8 L" p_data [7:0] $end
$var real 1 M" adc $end
$var real 1 N" dv_pixel $end
$var real 1 O" lsb $end
$var real 1 P" tmp $end
$var real 1 Q" v_erase $end
$upscope $end
$upscope $end
$scope begin genblk2[2] $end
$scope module ps $end
$var wire 8 R" DATA [7:0] $end
$var wire 1 ( ERASE $end
$var wire 1 ) EXPOSE $end
$var wire 1 # RAMP $end
$var wire 1 S" READ $end
$var wire 1 ! RESET $end
$var wire 1 $ VBN1 $end
$var reg 1 T" cmp $end
$var reg 8 U" p_data [7:0] $end
$var real 1 V" adc $end
$var real 1 W" dv_pixel $end
$var real 1 X" lsb $end
$var real 1 Y" tmp $end
$var real 1 Z" v_erase $end
$upscope $end
$upscope $end
$scope begin genblk2[3] $end
$scope module ps $end
$var wire 8 [" DATA [7:0] $end
$var wire 1 ( ERASE $end
$var wire 1 ) EXPOSE $end
$var wire 1 # RAMP $end
$var wire 1 \" READ $end
$var wire 1 ! RESET $end
$var wire 1 $ VBN1 $end
$var reg 1 ]" cmp $end
$var reg 8 ^" p_data [7:0] $end
$var real 1 _" adc $end
$var real 1 `" dv_pixel $end
$var real 1 a" lsb $end
$var real 1 b" tmp $end
$var real 1 c" v_erase $end
$upscope $end
$upscope $end
$upscope $end
$upscope $end
$upscope $end
$enddefinitions $end
#0
$dumpvars
r1.2 c"
r0 b"
r0.004705882352941176 a"
r0.5 `"
r0 _"
bx ^"
x]"
x\"
bx ["
r1.2 Z"
r0 Y"
r0.004705882352941176 X"
r0.5 W"
r0 V"
bx U"
xT"
xS"
bx R"
r1.2 Q"
r0 P"
r0.004705882352941176 O"
r0.5 N"
r0 M"
bx L"
xK"
xJ"
bx I"
r1.2 H"
r0 G"
r0.004705882352941176 F"
r0.5 E"
r0 D"
bx C"
xB"
xA"
bx @"
r1.2 ?"
r0 >"
r0.004705882352941176 ="
r0.5 <"
r0 ;"
bx :"
x9"
x8"
bx 7"
r1.2 6"
r0 5"
r0.004705882352941176 4"
r0.5 3"
r0 2"
bx 1"
x0"
x/"
bx ."
r1.2 -"
r0 ,"
r0.004705882352941176 +"
r0.5 *"
r0 )"
bx ("
x'"
x&"
bx %"
r1.2 $"
r0 #"
r0.004705882352941176 ""
r0.5 !"
r0 ~
bx }
x|
x{
bx z
r1.2 y
r0 x
r0.004705882352941176 w
r0.5 v
r0 u
bx t
xs
xr
bx q
r1.2 p
r0 o
r0.004705882352941176 n
r0.5 m
r0 l
bx k
xj
xi
bx h
r1.2 g
r0 f
r0.004705882352941176 e
r0.5 d
r0 c
bx b
xa
x`
bx _
r1.2 ^
r0 ]
r0.004705882352941176 \
r0.5 [
r0 Z
bx Y
xX
xW
bx V
r1.2 U
r0 T
r0.004705882352941176 S
r0.5 R
r0 Q
bx P
xO
xN
bx M
r1.2 L
r0 K
r0.004705882352941176 J
r0.5 I
r0 H
bx G
xF
xE
bx D
r1.2 C
r0 B
r0.004705882352941176 A
r0.5 @
r0 ?
bx >
x=
x<
bx ;
r1.2 :
r0 9
r0.004705882352941176 8
r0.5 7
r0 6
bx 5
x4
x3
bx 2
bx 1
bx 0
b0 /
b100 .
1-
bx ,
b0 +
b0 *
x)
x(
b0 '
0&
0%
0$
0#
bx "
1!
$end
#500000
b0 .
x$
0-
1%
#1000000
b0 2
b0 ;
b0 D
b0 M
b0 V
b0 _
b0 h
b0 q
b0 z
b0 %"
b0 ."
b0 7"
b0 @"
b0 I"
b0 R"
b0 ["
b0 "
b0 0
03
0<
0E
0N
0W
0`
0i
0r
0{
0&"
0/"
08"
0A"
0J"
0S"
0\"
0]"
b0 ^"
r1.2 b"
0T"
b0 U"
r1.2 Y"
0K"
b0 L"
r1.2 P"
0B"
b0 C"
r1.2 G"
09"
b0 :"
r1.2 >"
00"
b0 1"
r1.2 5"
0'"
b0 ("
r1.2 ,"
0|
b0 }
r1.2 #"
0s
b0 t
r1.2 x
0j
b0 k
r1.2 o
0a
b0 b
r1.2 f
0X
b0 Y
r1.2 ]
0O
b0 P
r1.2 T
0F
b0 G
r1.2 K
0=
b0 >
r1.2 B
04
b0 5
r1.2 9
0)
b0 ,
b0 1
1(
0$
0%
#1500000
b1 /
1%
#2000000
0%
#2500000
b10 /
1%
#3000000
0%
#3500000
b11 /
1%
#4000000
0%
#4500000
b100 /
1%
#5000000
0%
#5500000
b101 /
1%
#6000000
0%
#6500000
b100 .
b1 *
b110 /
1%
#7000000
0(
0%
#7500000
b1 .
b0 /
1%
#8000000
1)
0%
#8500000
r1.197647058823529 b"
r1.197647058823529 Y"
r1.197647058823529 P"
r1.197647058823529 G"
r1.197647058823529 >"
r1.197647058823529 5"
r1.197647058823529 ,"
r1.197647058823529 #"
r1.197647058823529 x
r1.197647058823529 o
r1.197647058823529 f
r1.197647058823529 ]
r1.197647058823529 T
r1.197647058823529 K
r1.197647058823529 B
r1.197647058823529 9
b1 /
1$
1%
#9000000
0$
0%
#9500000
r1.195294117647059 9
r1.195294117647059 B
r1.195294117647059 K
r1.195294117647059 T
r1.195294117647059 ]
r1.195294117647059 f
r1.195294117647059 o
r1.195294117647059 x
r1.195294117647059 #"
r1.195294117647059 ,"
r1.195294117647059 5"
r1.195294117647059 >"
r1.195294117647059 G"
r1.195294117647059 P"
r1.195294117647059 Y"
r1.195294117647059 b"
b10 /
1$
1%
#10000000
0$
0%
#10500000
r1.192941176470588 b"
r1.192941176470588 Y"
r1.192941176470588 P"
r1.192941176470588 G"
r1.192941176470588 >"
r1.192941176470588 5"
r1.192941176470588 ,"
r1.192941176470588 #"
r1.192941176470588 x
r1.192941176470588 o
r1.192941176470588 f
r1.192941176470588 ]
r1.192941176470588 T
r1.192941176470588 K
r1.192941176470588 B
r1.192941176470588 9
b11 /
1$
1%
#11000000
0$
0%
#11500000
r1.190588235294117 9
r1.190588235294117 B
r1.190588235294117 K
r1.190588235294117 T
r1.190588235294117 ]
r1.190588235294117 f
r1.190588235294117 o
r1.190588235294117 x
r1.190588235294117 #"
r1.190588235294117 ,"
r1.190588235294117 5"
r1.190588235294117 >"
r1.190588235294117 G"
r1.190588235294117 P"
r1.190588235294117 Y"
r1.190588235294117 b"
b100 /
1$
1%
#12000000
0$
0%
#12500000
r1.188235294117647 b"
r1.188235294117647 Y"
r1.188235294117647 P"
r1.188235294117647 G"
r1.188235294117647 >"
r1.188235294117647 5"
r1.188235294117647 ,"
r1.188235294117647 #"
r1.188235294117647 x
r1.188235294117647 o
r1.188235294117647 f
r1.188235294117647 ]
r1.188235294117647 T
r1.188235294117647 K
r1.188235294117647 B
r1.188235294117647 9
b101 /
1$
1%
#13000000
0$
0%
#13500000
r1.185882352941176 9
r1.185882352941176 B
r1.185882352941176 K
r1.185882352941176 T
r1.185882352941176 ]
r1.185882352941176 f
r1.185882352941176 o
r1.185882352941176 x
r1.185882352941176 #"
r1.185882352941176 ,"
r1.185882352941176 5"
r1.185882352941176 >"
r1.185882352941176 G"
r1.185882352941176 P"
r1.185882352941176 Y"
r1.185882352941176 b"
b110 /
1$
1%
#14000000
0$
0%
#14500000
r1.183529411764705 b"
r1.183529411764705 Y"
r1.183529411764705 P"
r1.183529411764705 G"
r1.183529411764705 >"
r1.183529411764705 5"
r1.183529411764705 ,"
r1.183529411764705 #"
r1.183529411764705 x
r1.183529411764705 o
r1.183529411764705 f
r1.183529411764705 ]
r1.183529411764705 T
r1.183529411764705 K
r1.183529411764705 B
r1.183529411764705 9
b111 /
1$
1%
#15000000
0$
0%
#15500000
r1.181176470588235 9
r1.181176470588235 B
r1.181176470588235 K
r1.181176470588235 T
r1.181176470588235 ]
r1.181176470588235 f
r1.181176470588235 o
r1.181176470588235 x
r1.181176470588235 #"
r1.181176470588235 ,"
r1.181176470588235 5"
r1.181176470588235 >"
r1.181176470588235 G"
r1.181176470588235 P"
r1.181176470588235 Y"
r1.181176470588235 b"
b1000 /
1$
1%
#16000000
0$
0%
#16500000
r1.178823529411764 b"
r1.178823529411764 Y"
r1.178823529411764 P"
r1.178823529411764 G"
r1.178823529411764 >"
r1.178823529411764 5"
r1.178823529411764 ,"
r1.178823529411764 #"
r1.178823529411764 x
r1.178823529411764 o
r1.178823529411764 f
r1.178823529411764 ]
r1.178823529411764 T
r1.178823529411764 K
r1.178823529411764 B
r1.178823529411764 9
b1001 /
1$
1%
#17000000
0$
0%
#17500000
r1.176470588235293 9
r1.176470588235293 B
r1.176470588235293 K
r1.176470588235293 T
r1.176470588235293 ]
r1.176470588235293 f
r1.176470588235293 o
r1.176470588235293 x
r1.176470588235293 #"
r1.176470588235293 ,"
r1.176470588235293 5"
r1.176470588235293 >"
r1.176470588235293 G"
r1.176470588235293 P"
r1.176470588235293 Y"
r1.176470588235293 b"
b1010 /
1$
1%
#18000000
0$
0%
#18500000
r1.174117647058823 b"
r1.174117647058823 Y"
r1.174117647058823 P"
r1.174117647058823 G"
r1.174117647058823 >"
r1.174117647058823 5"
r1.174117647058823 ,"
r1.174117647058823 #"
r1.174117647058823 x
r1.174117647058823 o
r1.174117647058823 f
r1.174117647058823 ]
r1.174117647058823 T
r1.174117647058823 K
r1.174117647058823 B
r1.174117647058823 9
b1011 /
1$
1%
#19000000
0$
0%
#19500000
r1.171764705882352 9
r1.171764705882352 B
r1.171764705882352 K
r1.171764705882352 T
r1.171764705882352 ]
r1.171764705882352 f
r1.171764705882352 o
r1.171764705882352 x
r1.171764705882352 #"
r1.171764705882352 ,"
r1.171764705882352 5"
r1.171764705882352 >"
r1.171764705882352 G"
r1.171764705882352 P"
r1.171764705882352 Y"
r1.171764705882352 b"
b1100 /
1$
1%
#20000000
0$
0%
#20500000
r1.169411764705881 b"
r1.169411764705881 Y"
r1.169411764705881 P"
r1.169411764705881 G"
r1.169411764705881 >"
r1.169411764705881 5"
r1.169411764705881 ,"
r1.169411764705881 #"
r1.169411764705881 x
r1.169411764705881 o
r1.169411764705881 f
r1.169411764705881 ]
r1.169411764705881 T
r1.169411764705881 K
r1.169411764705881 B
r1.169411764705881 9
b1101 /
1$
1%
#21000000
0$
0%
#21500000
r1.167058823529411 9
r1.167058823529411 B
r1.167058823529411 K
r1.167058823529411 T
r1.167058823529411 ]
r1.167058823529411 f
r1.167058823529411 o
r1.167058823529411 x
r1.167058823529411 #"
r1.167058823529411 ,"
r1.167058823529411 5"
r1.167058823529411 >"
r1.167058823529411 G"
r1.167058823529411 P"
r1.167058823529411 Y"
r1.167058823529411 b"
b1110 /
1$
1%
#22000000
0$
0%
#22500000
r1.16470588235294 b"
r1.16470588235294 Y"
r1.16470588235294 P"
r1.16470588235294 G"
r1.16470588235294 >"
r1.16470588235294 5"
r1.16470588235294 ,"
r1.16470588235294 #"
r1.16470588235294 x
r1.16470588235294 o
r1.16470588235294 f
r1.16470588235294 ]
r1.16470588235294 T
r1.16470588235294 K
r1.16470588235294 B
r1.16470588235294 9
b1111 /
1$
1%
#23000000
0$
0%
#23500000
r1.162352941176469 9
r1.162352941176469 B
r1.162352941176469 K
r1.162352941176469 T
r1.162352941176469 ]
r1.162352941176469 f
r1.162352941176469 o
r1.162352941176469 x
r1.162352941176469 #"
r1.162352941176469 ,"
r1.162352941176469 5"
r1.162352941176469 >"
r1.162352941176469 G"
r1.162352941176469 P"
r1.162352941176469 Y"
r1.162352941176469 b"
b10000 /
1$
1%
#24000000
0$
0%
#24500000
r1.159999999999999 b"
r1.159999999999999 Y"
r1.159999999999999 P"
r1.159999999999999 G"
r1.159999999999999 >"
r1.159999999999999 5"
r1.159999999999999 ,"
r1.159999999999999 #"
r1.159999999999999 x
r1.159999999999999 o
r1.159999999999999 f
r1.159999999999999 ]
r1.159999999999999 T
r1.159999999999999 K
r1.159999999999999 B
r1.159999999999999 9
b10001 /
1$
1%
#25000000
0$
0%
#25500000
r1.157647058823528 9
r1.157647058823528 B
r1.157647058823528 K
r1.157647058823528 T
r1.157647058823528 ]
r1.157647058823528 f
r1.157647058823528 o
r1.157647058823528 x
r1.157647058823528 #"
r1.157647058823528 ,"
r1.157647058823528 5"
r1.157647058823528 >"
r1.157647058823528 G"
r1.157647058823528 P"
r1.157647058823528 Y"
r1.157647058823528 b"
b10010 /
1$
1%
#26000000
0$
0%
#26500000
r1.155294117647057 b"
r1.155294117647057 Y"
r1.155294117647057 P"
r1.155294117647057 G"
r1.155294117647057 >"
r1.155294117647057 5"
r1.155294117647057 ,"
r1.155294117647057 #"
r1.155294117647057 x
r1.155294117647057 o
r1.155294117647057 f
r1.155294117647057 ]
r1.155294117647057 T
r1.155294117647057 K
r1.155294117647057 B
r1.155294117647057 9
b10011 /
1$
1%
#27000000
0$
0%
#27500000
r1.152941176470587 9
r1.152941176470587 B
r1.152941176470587 K
r1.152941176470587 T
r1.152941176470587 ]
r1.152941176470587 f
r1.152941176470587 o
r1.152941176470587 x
r1.152941176470587 #"
r1.152941176470587 ,"
r1.152941176470587 5"
r1.152941176470587 >"
r1.152941176470587 G"
r1.152941176470587 P"
r1.152941176470587 Y"
r1.152941176470587 b"
b10100 /
1$
1%
#28000000
0$
0%
#28500000
r1.150588235294116 b"
r1.150588235294116 Y"
r1.150588235294116 P"
r1.150588235294116 G"
r1.150588235294116 >"
r1.150588235294116 5"
r1.150588235294116 ,"
r1.150588235294116 #"
r1.150588235294116 x
r1.150588235294116 o
r1.150588235294116 f
r1.150588235294116 ]
r1.150588235294116 T
r1.150588235294116 K
r1.150588235294116 B
r1.150588235294116 9
b10101 /
1$
1%
#29000000
0$
0%
#29500000
r1.148235294117645 9
r1.148235294117645 B
r1.148235294117645 K
r1.148235294117645 T
r1.148235294117645 ]
r1.148235294117645 f
r1.148235294117645 o
r1.148235294117645 x
r1.148235294117645 #"
r1.148235294117645 ,"
r1.148235294117645 5"
r1.148235294117645 >"
r1.148235294117645 G"
r1.148235294117645 P"
r1.148235294117645 Y"
r1.148235294117645 b"
b10110 /
1$
1%
#30000000
0$
0%
#30500000
r1.145882352941175 b"
r1.145882352941175 Y"
r1.145882352941175 P"
r1.145882352941175 G"
r1.145882352941175 >"
r1.145882352941175 5"
r1.145882352941175 ,"
r1.145882352941175 #"
r1.145882352941175 x
r1.145882352941175 o
r1.145882352941175 f
r1.145882352941175 ]
r1.145882352941175 T
r1.145882352941175 K
r1.145882352941175 B
r1.145882352941175 9
b10111 /
1$
1%
#31000000
0$
0%
#31500000
r1.143529411764704 9
r1.143529411764704 B
r1.143529411764704 K
r1.143529411764704 T
r1.143529411764704 ]
r1.143529411764704 f
r1.143529411764704 o
r1.143529411764704 x
r1.143529411764704 #"
r1.143529411764704 ,"
r1.143529411764704 5"
r1.143529411764704 >"
r1.143529411764704 G"
r1.143529411764704 P"
r1.143529411764704 Y"
r1.143529411764704 b"
b11000 /
1$
1%
#32000000
0$
0%
#32500000
r1.141176470588233 b"
r1.141176470588233 Y"
r1.141176470588233 P"
r1.141176470588233 G"
r1.141176470588233 >"
r1.141176470588233 5"
r1.141176470588233 ,"
r1.141176470588233 #"
r1.141176470588233 x
r1.141176470588233 o
r1.141176470588233 f
r1.141176470588233 ]
r1.141176470588233 T
r1.141176470588233 K
r1.141176470588233 B
r1.141176470588233 9
b11001 /
1$
1%
#33000000
0$
0%
#33500000
r1.138823529411763 9
r1.138823529411763 B
r1.138823529411763 K
r1.138823529411763 T
r1.138823529411763 ]
r1.138823529411763 f
r1.138823529411763 o
r1.138823529411763 x
r1.138823529411763 #"
r1.138823529411763 ,"
r1.138823529411763 5"
r1.138823529411763 >"
r1.138823529411763 G"
r1.138823529411763 P"
r1.138823529411763 Y"
r1.138823529411763 b"
b11010 /
1$
1%
#34000000
0$
0%
#34500000
r1.136470588235292 b"
r1.136470588235292 Y"
r1.136470588235292 P"
r1.136470588235292 G"
r1.136470588235292 >"
r1.136470588235292 5"
r1.136470588235292 ,"
r1.136470588235292 #"
r1.136470588235292 x
r1.136470588235292 o
r1.136470588235292 f
r1.136470588235292 ]
r1.136470588235292 T
r1.136470588235292 K
r1.136470588235292 B
r1.136470588235292 9
b11011 /
1$
1%
#35000000
0$
0%
#35500000
r1.134117647058821 9
r1.134117647058821 B
r1.134117647058821 K
r1.134117647058821 T
r1.134117647058821 ]
r1.134117647058821 f
r1.134117647058821 o
r1.134117647058821 x
r1.134117647058821 #"
r1.134117647058821 ,"
r1.134117647058821 5"
r1.134117647058821 >"
r1.134117647058821 G"
r1.134117647058821 P"
r1.134117647058821 Y"
r1.134117647058821 b"
b11100 /
1$
1%
#36000000
0$
0%
#36500000
r1.131764705882351 b"
r1.131764705882351 Y"
r1.131764705882351 P"
r1.131764705882351 G"
r1.131764705882351 >"
r1.131764705882351 5"
r1.131764705882351 ,"
r1.131764705882351 #"
r1.131764705882351 x
r1.131764705882351 o
r1.131764705882351 f
r1.131764705882351 ]
r1.131764705882351 T
r1.131764705882351 K
r1.131764705882351 B
r1.131764705882351 9
b11101 /
1$
1%
#37000000
0$
0%
#37500000
r1.12941176470588 9
r1.12941176470588 B
r1.12941176470588 K
r1.12941176470588 T
r1.12941176470588 ]
r1.12941176470588 f
r1.12941176470588 o
r1.12941176470588 x
r1.12941176470588 #"
r1.12941176470588 ,"
r1.12941176470588 5"
r1.12941176470588 >"
r1.12941176470588 G"
r1.12941176470588 P"
r1.12941176470588 Y"
r1.12941176470588 b"
b11110 /
1$
1%
#38000000
0$
0%
#38500000
r1.127058823529409 b"
r1.127058823529409 Y"
r1.127058823529409 P"
r1.127058823529409 G"
r1.127058823529409 >"
r1.127058823529409 5"
r1.127058823529409 ,"
r1.127058823529409 #"
r1.127058823529409 x
r1.127058823529409 o
r1.127058823529409 f
r1.127058823529409 ]
r1.127058823529409 T
r1.127058823529409 K
r1.127058823529409 B
r1.127058823529409 9
b11111 /
1$
1%
#39000000
0$
0%
#39500000
r1.124705882352939 9
r1.124705882352939 B
r1.124705882352939 K
r1.124705882352939 T
r1.124705882352939 ]
r1.124705882352939 f
r1.124705882352939 o
r1.124705882352939 x
r1.124705882352939 #"
r1.124705882352939 ,"
r1.124705882352939 5"
r1.124705882352939 >"
r1.124705882352939 G"
r1.124705882352939 P"
r1.124705882352939 Y"
r1.124705882352939 b"
b100000 /
1$
1%
#40000000
0$
0%
#40500000
r1.122352941176468 b"
r1.122352941176468 Y"
r1.122352941176468 P"
r1.122352941176468 G"
r1.122352941176468 >"
r1.122352941176468 5"
r1.122352941176468 ,"
r1.122352941176468 #"
r1.122352941176468 x
r1.122352941176468 o
r1.122352941176468 f
r1.122352941176468 ]
r1.122352941176468 T
r1.122352941176468 K
r1.122352941176468 B
r1.122352941176468 9
b100001 /
1$
1%
#41000000
0$
0%
#41500000
r1.119999999999997 9
r1.119999999999997 B
r1.119999999999997 K
r1.119999999999997 T
r1.119999999999997 ]
r1.119999999999997 f
r1.119999999999997 o
r1.119999999999997 x
r1.119999999999997 #"
r1.119999999999997 ,"
r1.119999999999997 5"
r1.119999999999997 >"
r1.119999999999997 G"
r1.119999999999997 P"
r1.119999999999997 Y"
r1.119999999999997 b"
b100010 /
1$
1%
#42000000
0$
0%
#42500000
r1.117647058823527 b"
r1.117647058823527 Y"
r1.117647058823527 P"
r1.117647058823527 G"
r1.117647058823527 >"
r1.117647058823527 5"
r1.117647058823527 ,"
r1.117647058823527 #"
r1.117647058823527 x
r1.117647058823527 o
r1.117647058823527 f
r1.117647058823527 ]
r1.117647058823527 T
r1.117647058823527 K
r1.117647058823527 B
r1.117647058823527 9
b100011 /
1$
1%
#43000000
0$
0%
#43500000
r1.115294117647056 9
r1.115294117647056 B
r1.115294117647056 K
r1.115294117647056 T
r1.115294117647056 ]
r1.115294117647056 f
r1.115294117647056 o
r1.115294117647056 x
r1.115294117647056 #"
r1.115294117647056 ,"
r1.115294117647056 5"
r1.115294117647056 >"
r1.115294117647056 G"
r1.115294117647056 P"
r1.115294117647056 Y"
r1.115294117647056 b"
b100100 /
1$
1%
#44000000
0$
0%
#44500000
r1.112941176470585 b"
r1.112941176470585 Y"
r1.112941176470585 P"
r1.112941176470585 G"
r1.112941176470585 >"
r1.112941176470585 5"
r1.112941176470585 ,"
r1.112941176470585 #"
r1.112941176470585 x
r1.112941176470585 o
r1.112941176470585 f
r1.112941176470585 ]
r1.112941176470585 T
r1.112941176470585 K
r1.112941176470585 B
r1.112941176470585 9
b100101 /
1$
1%
#45000000
0$
0%
#45500000
r1.110588235294115 9
r1.110588235294115 B
r1.110588235294115 K
r1.110588235294115 T
r1.110588235294115 ]
r1.110588235294115 f
r1.110588235294115 o
r1.110588235294115 x
r1.110588235294115 #"
r1.110588235294115 ,"
r1.110588235294115 5"
r1.110588235294115 >"
r1.110588235294115 G"
r1.110588235294115 P"
r1.110588235294115 Y"
r1.110588235294115 b"
b100110 /
1$
1%
#46000000
0$
0%
#46500000
r1.108235294117644 b"
r1.108235294117644 Y"
r1.108235294117644 P"
r1.108235294117644 G"
r1.108235294117644 >"
r1.108235294117644 5"
r1.108235294117644 ,"
r1.108235294117644 #"
r1.108235294117644 x
r1.108235294117644 o
r1.108235294117644 f
r1.108235294117644 ]
r1.108235294117644 T
r1.108235294117644 K
r1.108235294117644 B
r1.108235294117644 9
b100111 /
1$
1%
#47000000
0$
0%
#47500000
r1.105882352941173 9
r1.105882352941173 B
r1.105882352941173 K
r1.105882352941173 T
r1.105882352941173 ]
r1.105882352941173 f
r1.105882352941173 o
r1.105882352941173 x
r1.105882352941173 #"
r1.105882352941173 ,"
r1.105882352941173 5"
r1.105882352941173 >"
r1.105882352941173 G"
r1.105882352941173 P"
r1.105882352941173 Y"
r1.105882352941173 b"
b101000 /
1$
1%
#48000000
0$
0%
