Verilog/AlternativeVerilogSolution_MentionedInReport/pixelState_tb.vcd
$date
	Mon Nov  1 18:57:47 2021
$end
$version
	GTKWave Analyzer v3.3.104 (w)1999-2020 BSI
$end
$timescale
	1ps
$end
$scope module PIXEL_STATE_TB $end
$var wire 1 % read_0 $end
$var wire 1 ) ex_2 $end
$var wire 1 , ex_3 $end
$var reg 1 / reset $end
$var wire 1 & ex_1 $end
$var wire 1 ' conv_1 $end
$var wire 1 * conv_2 $end
$var wire 1 " erase $end
$var wire 1 # ex_0 $end
$var wire 1 $ conv_0 $end
$var wire 1 + read_2 $end
$var wire 1 - conv_3 $end
$var wire 1 ( read_1 $end
$var wire 1 . read_3 $end
$upscope $end
$enddefinitions $end
#0
$dumpvars
x.
0$
1/
x%
x)
x&
x"
x#
0*
0'
x+
x,
x(
0-
$end
#2000
1"
0.
0&
0%
0)
0(
0#
0,
0+
#20000
0/
#32000
0"
#36000
1#
#548000
0#
1&
#550000
1$
#1060000
0&
1)
#1062000
0$
1'
#1064000
1%
#1076000
0%
#1572000
0)
1,
#1574000
0'
1*
#1576000
1(
#1588000
0(
#2084000
0,
#2086000
1-
0*
#2088000
1+
#2100000
0+
#2598000
0-
#2600000
1.
#2612000
0.
#2614000
1"
#2624000
0"
#2628000
1#
#3140000
0#
1&
#3142000
1$
#3652000
0&
1)
#3654000
0$
1'
#3656000
1%
#3668000
0%
#4164000
1,
0)
#4166000
0'
1*
#4168000
1(
#4180000
0(
#4676000
0,
#4678000
0*
1-
#4680000
1+
#4692000
0+
#5190000
0-
#5192000
1.
#5204000
0.
#5206000
1"
#5216000
0"
#5220000
1#
#5732000
0#
1&
#5734000
1$
#6244000
1)
0&
#6246000
0$
1'
#6248000
1%
#6260000
0%
#6756000
1,
0)
#6758000
0'
1*
#6760000
1(
#6772000
0(
#7268000
0,
#7270000
0*
1-
#7272000
1+
#7284000
0+
#7782000
0-
#7784000
1.
#7796000
0.
#7798000
1"
#7808000
0"
#7812000
1#
#8324000
0#
1&
#8326000
1$
#8836000
0&
1)
#8838000
0$
1'
#8840000
1%
#8852000
0%
#9348000
0)
1,
#9350000
0'
1*
#9352000
1(
#9364000
0(
#9860000
0,
#9862000
1-
0*
#9864000
1+
#9876000
0+
#10020000
1/
0-
1"
#10040000
0/
#10052000
0"
#10056000
1#
#10568000
0#
1&
#10570000
1$
