Verilog/AlternativeVerilogSolution_MentionedInReport/pixelTop_tb.vcd
$date
	Sat Nov  6 16:58:16 2021
$end
$version
	Icarus Verilog
$end
$timescale
	1ps
$end
$scope module pixelTop_tb $end
$var wire 1 ! anaReset $end
$var wire 32 " pixData [31:0] $end
$var wire 4 # read [3:0] $end
$var wire 8 $ pixelDataOut_3 [7:0] $end
$var wire 8 % pixelDataOut_2 [7:0] $end
$var wire 8 & pixelDataOut_1 [7:0] $end
$var wire 8 ' pixelDataOut_0 [7:0] $end
$var wire 4 ( expose [3:0] $end
$var wire 1 ) erase $end
$var wire 4 * convert [3:0] $end
$var wire 4 + anaRamp [3:0] $end
$var wire 4 , anaBias1 [3:0] $end
$var reg 1 - clk $end
$var reg 32 . data [31:0] $end
$var reg 32 / pixelDataOut [31:0] $end
$var reg 1 0 reset $end
$scope module pt1 $end
$var wire 1 ! ANARESET $end
$var wire 1 - CLOCK $end
$var wire 32 1 DATA [31:0] $end
$var wire 4 2 RAMP [3:0] $end
$var wire 1 0 RESET $end
$var wire 4 3 VBN1 [3:0] $end
$var wire 4 4 READ [3:0] $end
$var wire 4 5 EXPOSE [3:0] $end
$var wire 1 ) ERASE $end
$var wire 4 6 CONVERT [3:0] $end
$scope module pa1 $end
$var wire 32 7 DATA [31:0] $end
$var wire 4 8 RAMP [3:0] $end
$var wire 1 ! RESET $end
$var wire 4 9 VBN1 [3:0] $end
$var wire 4 : READ [3:0] $end
$var wire 4 ; EXPOSE [3:0] $end
$var wire 1 ) ERASE $end
$scope module ps0 $end
$var wire 8 < DATA [7:0] $end
$var wire 1 = EXPOSE $end
$var wire 1 > RAMP $end
$var wire 1 ? READ $end
$var wire 1 ! RESET $end
$var wire 1 @ VBN1 $end
$var wire 1 ) ERASE $end
$var reg 1 A cmp $end
$var reg 8 B p_data [7:0] $end
$var real 1 C adc $end
$var real 1 D lsb $end
$var real 1 E tmp $end
$var real 1 F v_erase $end
$upscope $end
$scope module ps1 $end
$var wire 8 G DATA [7:0] $end
$var wire 1 H EXPOSE $end
$var wire 1 I RAMP $end
$var wire 1 J READ $end
$var wire 1 ! RESET $end
$var wire 1 K VBN1 $end
$var wire 1 ) ERASE $end
$var reg 1 L cmp $end
$var reg 8 M p_data [7:0] $end
$var real 1 N adc $end
$var real 1 O lsb $end
$var real 1 P tmp $end
$var real 1 Q v_erase $end
$upscope $end
$scope module ps10 $end
$var wire 8 R DATA [7:0] $end
$var wire 1 S EXPOSE $end
$var wire 1 T RAMP $end
$var wire 1 U READ $end
$var wire 1 ! RESET $end
$var wire 1 V VBN1 $end
$var wire 1 ) ERASE $end
$var reg 1 W cmp $end
$var reg 8 X p_data [7:0] $end
$var real 1 Y adc $end
$var real 1 Z lsb $end
$var real 1 [ tmp $end
$var real 1 \ v_erase $end
$upscope $end
$scope module ps11 $end
$var wire 8 ] DATA [7:0] $end
$var wire 1 ^ EXPOSE $end
$var wire 1 _ RAMP $end
$var wire 1 ` READ $end
$var wire 1 ! RESET $end
$var wire 1 a VBN1 $end
$var wire 1 ) ERASE $end
$var reg 1 b cmp $end
$var reg 8 c p_data [7:0] $end
$var real 1 d adc $end
$var real 1 e lsb $end
$var real 1 f tmp $end
$var real 1 g v_erase $end
$upscope $end
$scope module ps12 $end
$var wire 8 h DATA [7:0] $end
$var wire 1 i EXPOSE $end
$var wire 1 j RAMP $end
$var wire 1 k READ $end
$var wire 1 ! RESET $end
$var wire 1 l VBN1 $end
$var wire 1 ) ERASE $end
$var reg 1 m cmp $end
$var reg 8 n p_data [7:0] $end
$var real 1 o adc $end
$var real 1 p lsb $end
$var real 1 q tmp $end
$var real 1 r v_erase $end
$upscope $end
$scope module ps13 $end
$var wire 8 s DATA [7:0] $end
$var wire 1 t EXPOSE $end
$var wire 1 u RAMP $end
$var wire 1 v READ $end
$var wire 1 ! RESET $end
$var wire 1 w VBN1 $end
$var wire 1 ) ERASE $end
$var reg 1 x cmp $end
$var reg 8 y p_data [7:0] $end
$var real 1 z adc $end
$var real 1 { lsb $end
$var real 1 | tmp $end
$var real 1 } v_erase $end
$upscope $end
$scope module ps14 $end
$var wire 8 ~ DATA [7:0] $end
$var wire 1 !" EXPOSE $end
$var wire 1 "" RAMP $end
$var wire 1 #" READ $end
$var wire 1 ! RESET $end
$var wire 1 $" VBN1 $end
$var wire 1 ) ERASE $end
$var reg 1 %" cmp $end
$var reg 8 &" p_data [7:0] $end
$var real 1 '" adc $end
$var real 1 (" lsb $end
$var real 1 )" tmp $end
$var real 1 *" v_erase $end
$upscope $end
$scope module ps15 $end
$var wire 8 +" DATA [7:0] $end
$var wire 1 ," EXPOSE $end
$var wire 1 -" RAMP $end
$var wire 1 ." READ $end
$var wire 1 ! RESET $end
$var wire 1 /" VBN1 $end
$var wire 1 ) ERASE $end
$var reg 1 0" cmp $end
$var reg 8 1" p_data [7:0] $end
$var real 1 2" adc $end
$var real 1 3" lsb $end
$var real 1 4" tmp $end
$var real 1 5" v_erase $end
$upscope $end
$scope module ps2 $end
$var wire 8 6" DATA [7:0] $end
$var wire 1 7" EXPOSE $end
$var wire 1 8" RAMP $end
$var wire 1 9" READ $end
$var wire 1 ! RESET $end
$var wire 1 :" VBN1 $end
$var wire 1 ) ERASE $end
$var reg 1 ;" cmp $end
$var reg 8 <" p_data [7:0] $end
$var real 1 =" adc $end
$var real 1 >" lsb $end
$var real 1 ?" tmp $end
$var real 1 @" v_erase $end
$upscope $end
$scope module ps3 $end
$var wire 8 A" DATA [7:0] $end
$var wire 1 B" EXPOSE $end
$var wire 1 C" RAMP $end
$var wire 1 D" READ $end
$var wire 1 ! RESET $end
$var wire 1 E" VBN1 $end
$var wire 1 ) ERASE $end
$var reg 1 F" cmp $end
$var reg 8 G" p_data [7:0] $end
$var real 1 H" adc $end
$var real 1 I" lsb $end
$var real 1 J" tmp $end
$var real 1 K" v_erase $end
$upscope $end
$scope module ps4 $end
$var wire 8 L" DATA [7:0] $end
$var wire 1 M" EXPOSE $end
$var wire 1 N" RAMP $end
$var wire 1 O" READ $end
$var wire 1 ! RESET $end
$var wire 1 P" VBN1 $end
$var wire 1 ) ERASE $end
$var reg 1 Q" cmp $end
$var reg 8 R" p_data [7:0] $end
$var real 1 S" adc $end
$var real 1 T" lsb $end
$var real 1 U" tmp $end
$var real 1 V" v_erase $end
$upscope $end
$scope module ps5 $end
$var wire 8 W" DATA [7:0] $end
$var wire 1 X" EXPOSE $end
$var wire 1 Y" RAMP $end
$var wire 1 Z" READ $end
$var wire 1 ! RESET $end
$var wire 1 [" VBN1 $end
$var wire 1 ) ERASE $end
$var reg 1 \" cmp $end
$var reg 8 ]" p_data [7:0] $end
$var real 1 ^" adc $end
$var real 1 _" lsb $end
$var real 1 `" tmp $end
$var real 1 a" v_erase $end
$upscope $end
$scope module ps6 $end
$var wire 8 b" DATA [7:0] $end
$var wire 1 c" EXPOSE $end
$var wire 1 d" RAMP $end
$var wire 1 e" READ $end
$var wire 1 ! RESET $end
$var wire 1 f" VBN1 $end
$var wire 1 ) ERASE $end
$var reg 1 g" cmp $end
$var reg 8 h" p_data [7:0] $end
$var real 1 i" adc $end
$var real 1 j" lsb $end
$var real 1 k" tmp $end
$var real 1 l" v_erase $end
$upscope $end
$scope module ps7 $end
$var wire 8 m" DATA [7:0] $end
$var wire 1 n" EXPOSE $end
$var wire 1 o" RAMP $end
$var wire 1 p" READ $end
$var wire 1 ! RESET $end
$var wire 1 q" VBN1 $end
$var wire 1 ) ERASE $end
$var reg 1 r" cmp $end
$var reg 8 s" p_data [7:0] $end
$var real 1 t" adc $end
$var real 1 u" lsb $end
$var real 1 v" tmp $end
$var real 1 w" v_erase $end
$upscope $end
$scope module ps8 $end
$var wire 8 x" DATA [7:0] $end
$var wire 1 y" EXPOSE $end
$var wire 1 z" RAMP $end
$var wire 1 {" READ $end
$var wire 1 ! RESET $end
$var wire 1 |" VBN1 $end
$var wire 1 ) ERASE $end
$var reg 1 }" cmp $end
$var reg 8 ~" p_data [7:0] $end
$var real 1 !# adc $end
$var real 1 "# lsb $end
$var real 1 ## tmp $end
$var real 1 $# v_erase $end
$upscope $end
$scope module ps9 $end
$var wire 8 %# DATA [7:0] $end
$var wire 1 &# EXPOSE $end
$var wire 1 '# RAMP $end
$var wire 1 (# READ $end
$var wire 1 ! RESET $end
$var wire 1 )# VBN1 $end
$var wire 1 ) ERASE $end
$var reg 1 *# cmp $end
$var reg 8 +# p_data [7:0] $end
$var real 1 ,# adc $end
$var real 1 -# lsb $end
$var real 1 .# tmp $end
$var real 1 /# v_erase $end
$upscope $end
$upscope $end
$scope module ps1 $end
$var wire 1 - clock $end
$var wire 1 0 reset $end
$var reg 4 0# convert [3:0] $end
$var reg 1 ) erase $end
$var reg 4 1# expose [3:0] $end
$var reg 12 2# next_state [11:0] $end
$var reg 4 3# read [3:0] $end
$var reg 12 4# state [11:0] $end
$var integer 32 5# counter0 [31:0] $end
$var integer 32 6# counter1 [31:0] $end
$var integer 32 7# counter2 [31:0] $end
$var integer 32 8# counter3 [31:0] $end
$upscope $end
$upscope $end
$upscope $end
$enddefinitions $end
#0
$dumpvars
b0 8#
b0 7#
b0 6#
b0 5#
b100 4#
bx 3#
b0 2#
bx 1#
b0 0#
r1.2 /#
r0 .#
r0.004705882352941176 -#
r0 ,#
bx +#
x*#
0)#
x(#
0'#
x&#
bx %#
r1.2 $#
r0 ##
r0.004705882352941176 "#
r0 !#
bx ~"
x}"
0|"
x{"
0z"
xy"
bx x"
r1.2 w"
r0 v"
r0.004705882352941176 u"
r0 t"
bx s"
xr"
0q"
xp"
0o"
xn"
bx m"
r1.2 l"
r0 k"
r0.004705882352941176 j"
r0 i"
bx h"
xg"
0f"
xe"
0d"
xc"
bx b"
r1.2 a"
r0 `"
r0.004705882352941176 _"
r0 ^"
bx ]"
x\"
0["
xZ"
0Y"
xX"
bx W"
r1.2 V"
r0 U"
r0.004705882352941176 T"
r0 S"
bx R"
xQ"
0P"
xO"
0N"
xM"
bx L"
r1.2 K"
r0 J"
r0.004705882352941176 I"
r0 H"
bx G"
xF"
0E"
xD"
0C"
xB"
bx A"
r1.2 @"
r0 ?"
r0.004705882352941176 >"
r0 ="
bx <"
x;"
0:"
x9"
08"
x7"
bx 6"
r1.2 5"
r0 4"
r0.004705882352941176 3"
r0 2"
bx 1"
x0"
0/"
x."
0-"
x,"
bx +"
r1.2 *"
r0 )"
r0.004705882352941176 ("
r0 '"
bx &"
x%"
0$"
x#"
0""
x!"
bx ~
r1.2 }
r0 |
r0.004705882352941176 {
r0 z
bx y
xx
0w
xv
0u
xt
bx s
r1.2 r
r0 q
r0.004705882352941176 p
r0 o
bx n
xm
0l
xk
0j
xi
bx h
r1.2 g
r0 f
r0.004705882352941176 e
r0 d
bx c
xb
0a
x`
0_
x^
bx ]
r1.2 \
r0 [
r0.004705882352941176 Z
r0 Y
bx X
xW
0V
xU
0T
xS
bx R
r1.2 Q
r0 P
r0.004705882352941176 O
r0 N
bx M
xL
0K
xJ
0I
xH
bx G
r1.2 F
r0 E
r0.004705882352941176 D
r0 C
bx B
xA
0@
x?
0>
x=
bx <
bx ;
bx :
b0 9
b0 8
bx 7
b0 6
bx 5
bx 4
b0 3
b0 2
bx 1
10
b0 /
b0 .
0-
b0 ,
b0 +
b0 *
x)
bx (
b0 '
b0 &
b0 %
b0 $
bx #
bx "
1!
$end
#500000
bx $
bx %
bx &
bx '
bx /
b0 4#
x@
xK
x:"
xE"
xP"
x["
xf"
xq"
x|"
x)#
xV
xa
xl
xw
x$"
x/"
bx ,
bx 3
bx 9
b1 8#
b1 7#
b1 6#
00
1-
#1000000
b0 <
b0 G
b0 6"
b0 A"
b0 L"
b0 W"
b0 b"
b0 m"
b0 x"
b0 %#
b0 R
b0 ]
b0 h
b0 s
b0 ~
b0 +"
b0 "
b0 1
b0 7
0,"
0!"
0t
0i
0."
0#"
0v
0k
0^
0S
0&#
0y"
0`
0U
0(#
0{"
0n"
0c"
0X"
0M"
0p"
0e"
0Z"
0O"
0B"
07"
0H
0=
0D"
09"
0J
0?
00"
b0 1"
r1.2 4"
0%"
b0 &"
r1.2 )"
0x
b0 y
r1.2 |
0m
b0 n
r1.2 q
0b
b0 c
r1.2 f
0W
b0 X
r1.2 [
0*#
b0 +#
r1.2 .#
0}"
b0 ~"
r1.2 ##
0r"
b0 s"
r1.2 v"
0g"
b0 h"
r1.2 k"
0\"
b0 ]"
r1.2 `"
0Q"
b0 R"
r1.2 U"
0F"
b0 G"
r1.2 J"
0;"
b0 <"
r1.2 ?"
0L
b0 M
r1.2 P
0A
b0 B
r1.2 E
b0 (
b0 5
b0 ;
b0 1#
b0 #
b0 4
b0 :
b0 3#
1)
0@
0K
0:"
0E"
0P"
0["
0f"
0q"
0|"
0)#
0V
0a
0l
0w
0$"
0/"
b0 ,
b0 3
b0 9
0-
#1500000
b0 $
b0 %
b0 &
b0 '
b0 /
b10 8#
b10 7#
b10 6#
b1 5#
1-
#2000000
0-
#2500000
b11 8#
b11 7#
b11 6#
b10 5#
1-
#3000000
0-
#3500000
b100 8#
b100 7#
b100 6#
b11 5#
1-
#4000000
0-
#4500000
b101 8#
b101 7#
b101 6#
b100 5#
1-
#5000000
0-
#5500000
b0 8#
b0 7#
b0 6#
b100100100000 4#
b100100100000 2#
b101 5#
1-
#6000000
0)
0-
#6500000
b0 5#
b100100100100 4#
b100100100001 2#
1-
#7000000
0-
#7500000
b100100100001 4#
1-
#8000000
1B"
17"
1H
1=
b1 (
b1 5
b1 ;
b1 1#
0-
#8500000
r1.197647058823529 E
r1.197647058823529 P
r1.197647058823529 ?"
r1.197647058823529 J"
1@
1K
1:"
1E"
b1 ,
b1 3
b1 9
b1 5#
1-
#9000000
0@
0K
0:"
0E"
b0 ,
b0 3
b0 9
0-
#9500000
r1.195294117647059 E
r1.195294117647059 P
r1.195294117647059 ?"
r1.195294117647059 J"
1@
1K
1:"
1E"
b1 ,
b1 3
b1 9
b10 5#
1-
#10000000
0@
0K
0:"
0E"
b0 ,
b0 3
b0 9
0-
#10500000
r1.192941176470588 E
r1.192941176470588 P
r1.192941176470588 ?"
r1.192941176470588 J"
1@
1K
1:"
1E"
b1 ,
b1 3
b1 9
b11 5#
1-
#11000000
0@
0K
0:"
0E"
b0 ,
b0 3
b0 9
0-
#11500000
r1.190588235294117 E
r1.190588235294117 P
r1.190588235294117 ?"
r1.190588235294117 J"
1@
1K
1:"
1E"
b1 ,
b1 3
b1 9
b100 5#
1-
#12000000
0@
0K
0:"
0E"
b0 ,
b0 3
b0 9
0-
#12500000
r1.188235294117647 E
r1.188235294117647 P
r1.188235294117647 ?"
r1.188235294117647 J"
1@
1K
1:"
1E"
b1 ,
b1 3
b1 9
b101 5#
1-
#13000000
0@
0K
0:"
0E"
b0 ,
b0 3
b0 9
0-
#13500000
r1.185882352941176 E
r1.185882352941176 P
r1.185882352941176 ?"
r1.185882352941176 J"
1@
1K
1:"
1E"
b1 ,
b1 3
b1 9
b110 5#
1-
#14000000
0@
0K
0:"
0E"
b0 ,
b0 3
b0 9
0-
#14500000
r1.183529411764705 E
r1.183529411764705 P
r1.183529411764705 ?"
r1.183529411764705 J"
1@
1K
1:"
1E"
b1 ,
b1 3
b1 9
b111 5#
1-
#15000000
0@
0K
0:"
0E"
b0 ,
b0 3
b0 9
0-
#15500000
r1.181176470588235 E
r1.181176470588235 P
r1.181176470588235 ?"
r1.181176470588235 J"
1@
1K
1:"
1E"
b1 ,
b1 3
b1 9
b1000 5#
1-
#16000000
0@
0K
0:"
0E"
b0 ,
b0 3
b0 9
0-
#16500000
r1.178823529411764 E
r1.178823529411764 P
r1.178823529411764 ?"
r1.178823529411764 J"
1@
1K
1:"
1E"
b1 ,
b1 3
b1 9
b1001 5#
1-
#17000000
0@
0K
0:"
0E"
b0 ,
b0 3
b0 9
0-
#17500000
r1.176470588235293 E
r1.176470588235293 P
r1.176470588235293 ?"
r1.176470588235293 J"
1@
1K
1:"
1E"
b1 ,
b1 3
b1 9
b1010 5#
1-
#18000000
0@
0K
0:"
0E"
b0 ,
b0 3
b0 9
0-
#18500000
r1.174117647058823 E
r1.174117647058823 P
r1.174117647058823 ?"
r1.174117647058823 J"
1@
1K
1:"
1E"
b1 ,
b1 3
b1 9
b1011 5#
1-
#19000000
0@
0K
0:"
0E"
b0 ,
b0 3
b0 9
0-
#19500000
r1.171764705882352 E
r1.171764705882352 P
r1.171764705882352 ?"
r1.171764705882352 J"
1@
1K
1:"
1E"
b1 ,
b1 3
b1 9
b1100 5#
1-
#20000000
0@
0K
0:"
0E"
b0 ,
b0 3
b0 9
0-
#20500000
r1.169411764705881 E
r1.169411764705881 P
r1.169411764705881 ?"
r1.169411764705881 J"
1@
1K
1:"
1E"
b1 ,
b1 3
b1 9
b1101 5#
1-
#21000000
0@
0K
0:"
0E"
b0 ,
b0 3
b0 9
0-
#21500000
r1.167058823529411 E
r1.167058823529411 P
r1.167058823529411 ?"
r1.167058823529411 J"
1@
1K
1:"
1E"
b1 ,
b1 3
b1 9
b1110 5#
1-
#22000000
0@
0K
0:"
0E"
b0 ,
b0 3
b0 9
0-
#22500000
r1.16470588235294 E
r1.16470588235294 P
r1.16470588235294 ?"
r1.16470588235294 J"
1@
1K
1:"
1E"
b1 ,
b1 3
b1 9
b1111 5#
1-
#23000000
0@
0K
0:"
0E"
b0 ,
b0 3
b0 9
0-
#23500000
r1.162352941176469 E
r1.162352941176469 P
r1.162352941176469 ?"
r1.162352941176469 J"
1@
1K
1:"
1E"
b1 ,
b1 3
b1 9
b10000 5#
1-
#24000000
0@
0K
0:"
0E"
b0 ,
b0 3
b0 9
0-
#24500000
r1.159999999999999 E
r1.159999999999999 P
r1.159999999999999 ?"
r1.159999999999999 J"
1@
1K
1:"
1E"
b1 ,
b1 3
b1 9
b10001 5#
1-
#25000000
0@
0K
0:"
0E"
b0 ,
b0 3
b0 9
0-
#25500000
r1.157647058823528 E
r1.157647058823528 P
r1.157647058823528 ?"
r1.157647058823528 J"
1@
1K
1:"
1E"
b1 ,
b1 3
b1 9
b10010 5#
1-
#26000000
0@
0K
0:"
0E"
b0 ,
b0 3
b0 9
0-
#26500000
r1.155294117647057 E
r1.155294117647057 P
r1.155294117647057 ?"
r1.155294117647057 J"
1@
1K
1:"
1E"
b1 ,
b1 3
b1 9
b10011 5#
1-
#27000000
0@
0K
0:"
0E"
b0 ,
b0 3
b0 9
0-
#27500000
r1.152941176470587 E
r1.152941176470587 P
r1.152941176470587 ?"
r1.152941176470587 J"
1@
1K
1:"
1E"
b1 ,
b1 3
b1 9
b10100 5#
1-
#28000000
0@
0K
0:"
0E"
b0 ,
b0 3
b0 9
0-
#28500000
r1.150588235294116 E
r1.150588235294116 P
r1.150588235294116 ?"
r1.150588235294116 J"
1@
1K
1:"
1E"
b1 ,
b1 3
b1 9
b10101 5#
1-
#29000000
0@
0K
0:"
0E"
b0 ,
b0 3
b0 9
0-
#29500000
r1.148235294117645 E
r1.148235294117645 P
r1.148235294117645 ?"
r1.148235294117645 J"
1@
1K
1:"
1E"
b1 ,
b1 3
b1 9
b10110 5#
1-
#30000000
0@
0K
0:"
0E"
b0 ,
b0 3
b0 9
0-
#30500000
r1.145882352941175 E
r1.145882352941175 P
r1.145882352941175 ?"
r1.145882352941175 J"
1@
1K
1:"
1E"
b1 ,
b1 3
b1 9
b10111 5#
1-
#31000000
0@
0K
0:"
0E"
b0 ,
b0 3
b0 9
0-
#31500000
r1.143529411764704 E
r1.143529411764704 P
r1.143529411764704 ?"
r1.143529411764704 J"
1@
1K
1:"
1E"
b1 ,
b1 3
b1 9
b11000 5#
1-
#32000000
0@
0K
0:"
0E"
b0 ,
b0 3
b0 9
0-
#32500000
r1.141176470588233 E
r1.141176470588233 P
r1.141176470588233 ?"
r1.141176470588233 J"
1@
1K
1:"
1E"
b1 ,
b1 3
b1 9
b11001 5#
1-
#33000000
0@
0K
0:"
0E"
b0 ,
b0 3
b0 9
0-
#33500000
r1.138823529411763 E
r1.138823529411763 P
r1.138823529411763 ?"
r1.138823529411763 J"
1@
1K
1:"
1E"
b1 ,
b1 3
b1 9
b11010 5#
1-
#34000000
0@
0K
0:"
0E"
b0 ,
b0 3
b0 9
0-
#34500000
r1.136470588235292 E
r1.136470588235292 P
r1.136470588235292 ?"
r1.136470588235292 J"
1@
1K
1:"
1E"
b1 ,
b1 3
b1 9
b11011 5#
1-
#35000000
0@
0K
0:"
0E"
b0 ,
b0 3
b0 9
0-
#35500000
r1.134117647058821 E
r1.134117647058821 P
r1.134117647058821 ?"
r1.134117647058821 J"
1@
1K
1:"
1E"
b1 ,
b1 3
b1 9
b11100 5#
1-
#36000000
0@
0K
0:"
0E"
b0 ,
b0 3
b0 9
0-
#36500000
r1.131764705882351 E
r1.131764705882351 P
r1.131764705882351 ?"
r1.131764705882351 J"
1@
1K
1:"
1E"
b1 ,
b1 3
b1 9
b11101 5#
1-
#37000000
0@
0K
0:"
0E"
b0 ,
b0 3
b0 9
0-
#37500000
r1.12941176470588 E
r1.12941176470588 P
r1.12941176470588 ?"
r1.12941176470588 J"
1@
1K
1:"
1E"
b1 ,
b1 3
b1 9
b11110 5#
1-
#38000000
0@
0K
0:"
0E"
b0 ,
b0 3
b0 9
0-
#38500000
r1.127058823529409 E
r1.127058823529409 P
r1.127058823529409 ?"
r1.127058823529409 J"
1@
1K
1:"
1E"
b1 ,
b1 3
b1 9
b11111 5#
1-
#39000000
0@
0K
0:"
0E"
b0 ,
b0 3
b0 9
0-
#39500000
r1.124705882352939 E
r1.124705882352939 P
r1.124705882352939 ?"
r1.124705882352939 J"
1@
1K
1:"
1E"
b1 ,
b1 3
b1 9
b100000 5#
1-
#40000000
0@
0K
0:"
0E"
b0 ,
b0 3
b0 9
0-
#40500000
r1.122352941176468 E
r1.122352941176468 P
r1.122352941176468 ?"
r1.122352941176468 J"
1@
1K
1:"
1E"
b1 ,
b1 3
b1 9
b100001 5#
1-
#41000000
0@
0K
0:"
0E"
b0 ,
b0 3
b0 9
0-
#41500000
r1.119999999999997 E
r1.119999999999997 P
r1.119999999999997 ?"
r1.119999999999997 J"
1@
1K
1:"
1E"
b1 ,
b1 3
b1 9
b100010 5#
1-
#42000000
0@
0K
0:"
0E"
b0 ,
b0 3
b0 9
0-
#42500000
r1.117647058823527 E
r1.117647058823527 P
r1.117647058823527 ?"
r1.117647058823527 J"
1@
1K
1:"
1E"
b1 ,
b1 3
b1 9
b100011 5#
1-
#43000000
0@
0K
0:"
0E"
b0 ,
b0 3
b0 9
0-
#43500000
r1.115294117647056 E
r1.115294117647056 P
r1.115294117647056 ?"
r1.115294117647056 J"
1@
1K
1:"
1E"
b1 ,
b1 3
b1 9
b100100 5#
1-
#44000000
0@
0K
0:"
0E"
b0 ,
b0 3
b0 9
0-
#44500000
r1.112941176470585 E
r1.112941176470585 P
r1.112941176470585 ?"
r1.112941176470585 J"
1@
1K
1:"
1E"
b1 ,
b1 3
b1 9
b100101 5#
1-
#45000000
0@
0K
0:"
0E"
b0 ,
b0 3
b0 9
0-
#45500000
r1.110588235294115 E
r1.110588235294115 P
r1.110588235294115 ?"
r1.110588235294115 J"
1@
1K
1:"
1E"
b1 ,
b1 3
b1 9
b100110 5#
1-
#46000000
0@
0K
0:"
0E"
b0 ,
b0 3
b0 9
0-
#46500000
r1.108235294117644 E
r1.108235294117644 P
r1.108235294117644 ?"
r1.108235294117644 J"
1@
1K
1:"
1E"
b1 ,
b1 3
b1 9
b100111 5#
1-
#47000000
0@
0K
0:"
0E"
b0 ,
b0 3
b0 9
0-
#47500000
r1.105882352941173 E
r1.105882352941173 P
r1.105882352941173 ?"
r1.105882352941173 J"
1@
1K
1:"
1E"
b1 ,
b1 3
b1 9
b101000 5#
1-
#48000000
0@
0K
0:"
0E"
b0 ,
b0 3
b0 9
0-
#48500000
r1.103529411764703 E
r1.103529411764703 P
r1.103529411764703 ?"
r1.103529411764703 J"
1@
1K
1:"
1E"
b1 ,
b1 3
b1 9
b101001 5#
1-
#49000000
0@
0K
0:"
0E"
b0 ,
b0 3
b0 9
0-
#49500000
r1.101176470588232 E
r1.101176470588232 P
r1.101176470588232 ?"
r1.101176470588232 J"
1@
1K
1:"
1E"
b1 ,
b1 3
b1 9
b101010 5#
1-
#50000000
0@
0K
0:"
0E"
b0 ,
b0 3
b0 9
0-
#50500000
r1.098823529411761 E
r1.098823529411761 P
r1.098823529411761 ?"
r1.098823529411761 J"
1@
1K
1:"
1E"
b1 ,
b1 3
b1 9
b101011 5#
1-
#51000000
0@
0K
0:"
0E"
b0 ,
b0 3
b0 9
0-
#51500000
r1.096470588235291 E
r1.096470588235291 P
r1.096470588235291 ?"
r1.096470588235291 J"
1@
1K
1:"
1E"
b1 ,
b1 3
b1 9
b101100 5#
1-
#52000000
0@
0K
0:"
0E"
b0 ,
b0 3
b0 9
0-
#52500000
r1.09411764705882 E
r1.09411764705882 P
r1.09411764705882 ?"
r1.09411764705882 J"
1@
1K
1:"
1E"
b1 ,
b1 3
b1 9
b101101 5#
1-
#53000000
0@
0K
0:"
0E"
b0 ,
b0 3
b0 9
0-
#53500000
r1.091764705882349 E
r1.091764705882349 P
r1.091764705882349 ?"
r1.091764705882349 J"
1@
1K
1:"
1E"
b1 ,
b1 3
b1 9
b101110 5#
1-
#54000000
0@
0K
0:"
0E"
b0 ,
b0 3
b0 9
0-
#54500000
r1.089411764705879 E
r1.089411764705879 P
r1.089411764705879 ?"
r1.089411764705879 J"
1@
1K
1:"
1E"
b1 ,
b1 3
b1 9
b101111 5#
1-
#55000000
0@
0K
0:"
0E"
b0 ,
b0 3
b0 9
0-
#55500000
r1.087058823529408 E
r1.087058823529408 P
r1.087058823529408 ?"
r1.087058823529408 J"
1@
1K
1:"
1E"
b1 ,
b1 3
b1 9
b110000 5#
1-
#56000000
0@
0K
0:"
0E"
b0 ,
b0 3
b0 9
0-
#56500000
r1.084705882352937 E
r1.084705882352937 P
r1.084705882352937 ?"
r1.084705882352937 J"
1@
1K
1:"
1E"
b1 ,
b1 3
b1 9
b110001 5#
1-
#57000000
0@
0K
0:"
0E"
b0 ,
b0 3
b0 9
0-
#57500000
r1.082352941176467 E
r1.082352941176467 P
r1.082352941176467 ?"
r1.082352941176467 J"
1@
1K
1:"
1E"
b1 ,
b1 3
b1 9
b110010 5#
1-
#58000000
0@
0K
0:"
0E"
b0 ,
b0 3
b0 9
0-
#58500000
r1.079999999999996 E
r1.079999999999996 P
r1.079999999999996 ?"
r1.079999999999996 J"
1@
1K
1:"
1E"
b1 ,
b1 3
b1 9
b110011 5#
1-
#59000000
0@
0K
0:"
0E"
b0 ,
b0 3
b0 9
0-
#59500000
r1.077647058823525 E
r1.077647058823525 P
r1.077647058823525 ?"
r1.077647058823525 J"
1@
1K
1:"
1E"
b1 ,
b1 3
b1 9
b110100 5#
1-
#60000000
0@
0K
0:"
0E"
b0 ,
b0 3
b0 9
0-
#60500000
r1.075294117647055 E
r1.075294117647055 P
r1.075294117647055 ?"
r1.075294117647055 J"
1@
1K
1:"
1E"
b1 ,
b1 3
b1 9
b110101 5#
1-
#61000000
0@
0K
0:"
0E"
b0 ,
b0 3
b0 9
0-
#61500000
r1.072941176470584 E
r1.072941176470584 P
r1.072941176470584 ?"
r1.072941176470584 J"
1@
1K
1:"
1E"
b1 ,
b1 3
b1 9
b110110 5#
1-
#62000000
0@
0K
0:"
0E"
b0 ,
b0 3
b0 9
0-
#62500000
r1.070588235294113 E
r1.070588235294113 P
r1.070588235294113 ?"
r1.070588235294113 J"
1@
1K
1:"
1E"
b1 ,
b1 3
b1 9
b110111 5#
1-
#63000000
0@
0K
0:"
0E"
b0 ,
b0 3
b0 9
0-
#63500000
r1.068235294117643 E
r1.068235294117643 P
r1.068235294117643 ?"
r1.068235294117643 J"
1@
1K
1:"
1E"
b1 ,
b1 3
b1 9
b111000 5#
1-
#64000000
0@
0K
0:"
0E"
b0 ,
b0 3
b0 9
0-
#64500000
r1.065882352941172 E
r1.065882352941172 P
r1.065882352941172 ?"
r1.065882352941172 J"
1@
1K
1:"
1E"
b1 ,
b1 3
b1 9
b111001 5#
1-
#65000000
0@
0K
0:"
0E"
b0 ,
b0 3
b0 9
0-
#65500000
r1.063529411764701 E
r1.063529411764701 P
r1.063529411764701 ?"
r1.063529411764701 J"
1@
1K
1:"
1E"
b1 ,
b1 3
b1 9
b111010 5#
1-
#66000000
0@
0K
0:"
0E"
b0 ,
b0 3
b0 9
0-
#66500000
r1.061176470588231 E
r1.061176470588231 P
r1.061176470588231 ?"
r1.061176470588231 J"
1@
1K
1:"
1E"
b1 ,
b1 3
b1 9
b111011 5#
1-
#67000000
0@
0K
0:"
0E"
b0 ,
b0 3
b0 9
0-
#67500000
r1.05882352941176 E
r1.05882352941176 P
r1.05882352941176 ?"
r1.05882352941176 J"
1@
1K
1:"
1E"
b1 ,
b1 3
b1 9
b111100 5#
1-
#68000000
0@
0K
0:"
0E"
b0 ,
b0 3
b0 9
0-
#68500000
r1.056470588235289 E
r1.056470588235289 P
r1.056470588235289 ?"
r1.056470588235289 J"
1@
1K
1:"
1E"
b1 ,
b1 3
b1 9
b111101 5#
1-
#69000000
0@
0K
0:"
0E"
b0 ,
b0 3
b0 9
0-
#69500000
r1.054117647058818 E
r1.054117647058818 P
r1.054117647058818 ?"
r1.054117647058818 J"
1@
1K
1:"
1E"
b1 ,
b1 3
b1 9
b111110 5#
1-
#70000000
0@
0K
0:"
0E"
b0 ,
b0 3
b0 9
0-
#70500000
r1.051764705882348 E
r1.051764705882348 P
r1.051764705882348 ?"
r1.051764705882348 J"
1@
1K
1:"
1E"
b1 ,
b1 3
b1 9
b111111 5#
1-
