Verilog/AlternativeVerilogSolution_MentionedInReport/pixelArray_tb.vcd
$date
	Mon Nov  1 13:57:25 2021
$end
$version
	Icarus Verilog
$end
$timescale
	1ps
$end
$scope module pixelArray_tb $end
$var wire 1 ! anaReset $end
$var wire 32 " pixData_a [31:0] $end
$var wire 4 # read_a [3:0] $end
$var wire 8 $ pixData [7:0] $end
$var wire 4 % expose_a [3:0] $end
$var wire 4 & anaRamp_a [3:0] $end
$var wire 1 ' anaRamp $end
$var wire 4 ( anaBias1_a [3:0] $end
$var wire 1 ) anaBias1 $end
$var reg 1 * clk $end
$var reg 1 + convert $end
$var reg 8 , data [7:0] $end
$var reg 1 - erase $end
$var reg 1 . expose $end
$var reg 3 / next_state [2:0] $end
$var reg 8 0 pixelDataOut [7:0] $end
$var reg 1 1 read $end
$var reg 1 2 reset $end
$var reg 3 3 state [2:0] $end
$var integer 32 4 counter [31:0] $end
$scope module pa1 $end
$var wire 32 5 DATA [31:0] $end
$var wire 1 - ERASE $end
$var wire 4 6 EXPOSE [3:0] $end
$var wire 4 7 RAMP [3:0] $end
$var wire 4 8 READ [3:0] $end
$var wire 1 ! RESET $end
$var wire 4 9 VBN1 [3:0] $end
$scope module px0 $end
$var wire 8 : DATA [7:0] $end
$var wire 1 - ERASE $end
$var wire 1 ; EXPOSE $end
$var wire 1 < RAMP $end
$var wire 1 = READ $end
$var wire 1 ! RESET $end
$var wire 1 > VBN1 $end
$var reg 1 ? cmp $end
$var reg 8 @ p_data [7:0] $end
$var real 1 A adc $end
$var real 1 B lsb $end
$var real 1 C tmp $end
$var real 1 D v_erase $end
$upscope $end
$scope module px1 $end
$var wire 8 E DATA [7:0] $end
$var wire 1 - ERASE $end
$var wire 1 F EXPOSE $end
$var wire 1 G RAMP $end
$var wire 1 H READ $end
$var wire 1 ! RESET $end
$var wire 1 I VBN1 $end
$var reg 1 J cmp $end
$var reg 8 K p_data [7:0] $end
$var real 1 L adc $end
$var real 1 M lsb $end
$var real 1 N tmp $end
$var real 1 O v_erase $end
$upscope $end
$scope module px2 $end
$var wire 8 P DATA [7:0] $end
$var wire 1 - ERASE $end
$var wire 1 Q EXPOSE $end
$var wire 1 R RAMP $end
$var wire 1 S READ $end
$var wire 1 ! RESET $end
$var wire 1 T VBN1 $end
$var reg 1 U cmp $end
$var reg 8 V p_data [7:0] $end
$var real 1 W adc $end
$var real 1 X lsb $end
$var real 1 Y tmp $end
$var real 1 Z v_erase $end
$upscope $end
$scope module px3 $end
$var wire 8 [ DATA [7:0] $end
$var wire 1 - ERASE $end
$var wire 1 \ EXPOSE $end
$var wire 1 ] RAMP $end
$var wire 1 ^ READ $end
$var wire 1 ! RESET $end
$var wire 1 _ VBN1 $end
$var reg 1 ` cmp $end
$var reg 8 a p_data [7:0] $end
$var real 1 b adc $end
$var real 1 c lsb $end
$var real 1 d tmp $end
$var real 1 e v_erase $end
$upscope $end
$upscope $end
$upscope $end
$enddefinitions $end
#500000
$dumpvars
r1.2 e
r0 d
r0.004705882352941176 c
r0 b
bx a
x`
x_
x^
0]
x\
bx [
r1.2 Z
r0 Y
r0.004705882352941176 X
r0 W
bx V
xU
xT
xS
0R
xQ
bx P
r1.2 O
r0 N
r0.004705882352941176 M
r0 L
bx K
xJ
xI
xH
0G
xF
bx E
r1.2 D
r0 C
r0.004705882352941176 B
r0 A
bx @
x?
x>
x=
0<
x;
bx :
bx 9
bx 8
b0 7
bx 6
bx 5
b0 4
b0 3
02
x1
b0 0
b0 /
x.
x-
b0 ,
0+
1*
x)
bx (
0'
b0 &
bx %
bx $
bx #
bx "
1!
$end
#1000000
b0 :
b0 E
b0 P
b0 [
b0 "
b0 5
0;
0F
0Q
0\
b0 $
0=
0H
0S
0^
0`
b0 a
r1.2 d
0U
b0 V
r1.2 Y
0J
b0 K
r1.2 N
0?
b0 @
r1.2 C
b0 %
b0 6
0.
b0 #
b0 8
01
1-
0>
0I
0T
0_
b0 (
b0 9
0)
0*
#1500000
b1 4
1*
#2000000
0*
#2500000
b10 4
1*
#3000000
0*
#3500000
b11 4
1*
#4000000
0*
#4500000
b100 4
1*
#5000000
0*
#5500000
b101 4
1*
#6000000
0*
#6500000
b100 3
b1 /
b110 4
1*
#7000000
0-
0*
#7500000
b1 3
b0 4
1*
#8000000
1;
1F
1Q
1\
b1111 %
b1111 6
1.
0*
#8500000
r1.197647058823529 C
r1.197647058823529 N
r1.197647058823529 Y
r1.197647058823529 d
1>
1I
1T
1_
b1 4
b1111 (
b1111 9
1)
1*
#9000000
0>
0I
0T
0_
b0 (
b0 9
0)
0*
#9500000
r1.195294117647059 C
r1.195294117647059 N
r1.195294117647059 Y
r1.195294117647059 d
1>
1I
1T
1_
b10 4
b1111 (
b1111 9
1)
1*
#10000000
0>
0I
0T
0_
b0 (
b0 9
0)
0*
#10500000
r1.192941176470588 C
r1.192941176470588 N
r1.192941176470588 Y
r1.192941176470588 d
1>
1I
1T
1_
b11 4
b1111 (
b1111 9
1)
1*
#11000000
0>
0I
0T
0_
b0 (
b0 9
0)
0*
#11500000
r1.190588235294117 C
r1.190588235294117 N
r1.190588235294117 Y
r1.190588235294117 d
1>
1I
1T
1_
b100 4
b1111 (
b1111 9
1)
1*
#12000000
0>
0I
0T
0_
b0 (
b0 9
0)
0*
#12500000
r1.188235294117647 C
r1.188235294117647 N
r1.188235294117647 Y
r1.188235294117647 d
1>
1I
1T
1_
b101 4
b1111 (
b1111 9
1)
1*
#13000000
0>
0I
0T
0_
b0 (
b0 9
0)
0*
#13500000
r1.185882352941176 C
r1.185882352941176 N
r1.185882352941176 Y
r1.185882352941176 d
1>
1I
1T
1_
b110 4
b1111 (
b1111 9
1)
1*
#14000000
0>
0I
0T
0_
b0 (
b0 9
0)
0*
#14500000
r1.183529411764705 C
r1.183529411764705 N
r1.183529411764705 Y
r1.183529411764705 d
1>
1I
1T
1_
b111 4
b1111 (
b1111 9
1)
1*
#15000000
0>
0I
0T
0_
b0 (
b0 9
0)
0*
#15500000
r1.181176470588235 C
r1.181176470588235 N
r1.181176470588235 Y
r1.181176470588235 d
1>
1I
1T
1_
b1000 4
b1111 (
b1111 9
1)
1*
#16000000
0>
0I
0T
0_
b0 (
b0 9
0)
0*
#16500000
r1.178823529411764 C
r1.178823529411764 N
r1.178823529411764 Y
r1.178823529411764 d
1>
1I
1T
1_
b1001 4
b1111 (
b1111 9
1)
1*
#17000000
0>
0I
0T
0_
b0 (
b0 9
0)
0*
#17500000
r1.176470588235293 C
r1.176470588235293 N
r1.176470588235293 Y
r1.176470588235293 d
1>
1I
1T
1_
b1010 4
b1111 (
b1111 9
1)
1*
#18000000
0>
0I
0T
0_
b0 (
b0 9
0)
0*
#18500000
r1.174117647058823 C
r1.174117647058823 N
r1.174117647058823 Y
r1.174117647058823 d
1>
1I
1T
1_
b1011 4
b1111 (
b1111 9
1)
1*
#19000000
0>
0I
0T
0_
b0 (
b0 9
0)
0*
#19500000
r1.171764705882352 C
r1.171764705882352 N
r1.171764705882352 Y
r1.171764705882352 d
1>
1I
1T
1_
b1100 4
b1111 (
b1111 9
1)
1*
#20000000
0>
0I
0T
0_
b0 (
b0 9
0)
0*
#20500000
r1.169411764705881 C
r1.169411764705881 N
r1.169411764705881 Y
r1.169411764705881 d
1>
1I
1T
1_
b1101 4
b1111 (
b1111 9
1)
1*
#21000000
0>
0I
0T
0_
b0 (
b0 9
0)
0*
#21500000
r1.167058823529411 C
r1.167058823529411 N
r1.167058823529411 Y
r1.167058823529411 d
1>
1I
1T
1_
b1110 4
b1111 (
b1111 9
1)
1*
#22000000
0>
0I
0T
0_
b0 (
b0 9
0)
0*
#22500000
r1.16470588235294 C
r1.16470588235294 N
r1.16470588235294 Y
r1.16470588235294 d
1>
1I
1T
1_
b1111 4
b1111 (
b1111 9
1)
1*
#23000000
0>
0I
0T
0_
b0 (
b0 9
0)
0*
#23500000
r1.162352941176469 C
r1.162352941176469 N
r1.162352941176469 Y
r1.162352941176469 d
1>
1I
1T
1_
b10000 4
b1111 (
b1111 9
1)
1*
#24000000
0>
0I
0T
0_
b0 (
b0 9
0)
0*
#24500000
r1.159999999999999 C
r1.159999999999999 N
r1.159999999999999 Y
r1.159999999999999 d
1>
1I
1T
1_
b10001 4
b1111 (
b1111 9
1)
1*
#25000000
0>
0I
0T
0_
b0 (
b0 9
0)
0*
#25500000
r1.157647058823528 C
r1.157647058823528 N
r1.157647058823528 Y
r1.157647058823528 d
1>
1I
1T
1_
b10010 4
b1111 (
b1111 9
1)
1*
#26000000
0>
0I
0T
0_
b0 (
b0 9
0)
0*
#26500000
r1.155294117647057 C
r1.155294117647057 N
r1.155294117647057 Y
r1.155294117647057 d
1>
1I
1T
1_
b10011 4
b1111 (
b1111 9
1)
1*
#27000000
0>
0I
0T
0_
b0 (
b0 9
0)
0*
#27500000
r1.152941176470587 C
r1.152941176470587 N
r1.152941176470587 Y
r1.152941176470587 d
1>
1I
1T
1_
b10100 4
b1111 (
b1111 9
1)
1*
#28000000
0>
0I
0T
0_
b0 (
b0 9
0)
0*
#28500000
r1.150588235294116 C
r1.150588235294116 N
r1.150588235294116 Y
r1.150588235294116 d
1>
1I
1T
1_
b10101 4
b1111 (
b1111 9
1)
1*
#29000000
0>
0I
0T
0_
b0 (
b0 9
0)
0*
#29500000
r1.148235294117645 C
r1.148235294117645 N
r1.148235294117645 Y
r1.148235294117645 d
1>
1I
1T
1_
b10110 4
b1111 (
b1111 9
1)
1*
#30000000
0>
0I
0T
0_
b0 (
b0 9
0)
0*
#30500000
r1.145882352941175 C
r1.145882352941175 N
r1.145882352941175 Y
r1.145882352941175 d
1>
1I
1T
1_
b10111 4
b1111 (
b1111 9
1)
1*
#31000000
0>
0I
0T
0_
b0 (
b0 9
0)
0*
#31500000
r1.143529411764704 C
r1.143529411764704 N
r1.143529411764704 Y
r1.143529411764704 d
1>
1I
1T
1_
b11000 4
b1111 (
b1111 9
1)
1*
#32000000
0>
0I
0T
0_
b0 (
b0 9
0)
0*
#32500000
r1.141176470588233 C
r1.141176470588233 N
r1.141176470588233 Y
r1.141176470588233 d
1>
1I
1T
1_
b11001 4
b1111 (
b1111 9
1)
1*
#33000000
0>
0I
0T
0_
b0 (
b0 9
0)
0*
#33500000
r1.138823529411763 C
r1.138823529411763 N
r1.138823529411763 Y
r1.138823529411763 d
1>
1I
1T
1_
b11010 4
b1111 (
b1111 9
1)
1*
#34000000
0>
0I
0T
0_
b0 (
b0 9
0)
0*
#34500000
r1.136470588235292 C
r1.136470588235292 N
r1.136470588235292 Y
r1.136470588235292 d
1>
1I
1T
1_
b11011 4
b1111 (
b1111 9
1)
1*
#35000000
0>
0I
0T
0_
b0 (
b0 9
0)
0*
#35500000
r1.134117647058821 C
r1.134117647058821 N
r1.134117647058821 Y
r1.134117647058821 d
1>
1I
1T
1_
b11100 4
b1111 (
b1111 9
1)
1*
#36000000
0>
0I
0T
0_
b0 (
b0 9
0)
0*
#36500000
r1.131764705882351 C
r1.131764705882351 N
r1.131764705882351 Y
r1.131764705882351 d
1>
1I
1T
1_
b11101 4
b1111 (
b1111 9
1)
1*
#37000000
0>
0I
0T
0_
b0 (
b0 9
0)
0*
#37500000
r1.12941176470588 C
r1.12941176470588 N
r1.12941176470588 Y
r1.12941176470588 d
1>
1I
1T
1_
b11110 4
b1111 (
b1111 9
1)
1*
#38000000
0>
0I
0T
0_
b0 (
b0 9
0)
0*
#38500000
r1.127058823529409 C
r1.127058823529409 N
r1.127058823529409 Y
r1.127058823529409 d
1>
1I
1T
1_
b11111 4
b1111 (
b1111 9
1)
1*
#39000000
0>
0I
0T
0_
b0 (
b0 9
0)
0*
#39500000
r1.124705882352939 C
r1.124705882352939 N
r1.124705882352939 Y
r1.124705882352939 d
1>
1I
1T
1_
b100000 4
b1111 (
b1111 9
1)
1*
#40000000
0>
0I
0T
0_
b0 (
b0 9
0)
0*
#40500000
r1.122352941176468 C
r1.122352941176468 N
r1.122352941176468 Y
r1.122352941176468 d
1>
1I
1T
1_
b100001 4
b1111 (
b1111 9
1)
1*
#41000000
0>
0I
0T
0_
b0 (
b0 9
0)
0*
#41500000
r1.119999999999997 C
r1.119999999999997 N
r1.119999999999997 Y
r1.119999999999997 d
1>
1I
1T
1_
b100010 4
b1111 (
b1111 9
1)
1*
#42000000
0>
0I
0T
0_
b0 (
b0 9
0)
0*
#42500000
r1.117647058823527 C
r1.117647058823527 N
r1.117647058823527 Y
r1.117647058823527 d
1>
1I
1T
1_
b100011 4
b1111 (
b1111 9
1)
1*
#43000000
0>
0I
0T
0_
b0 (
b0 9
0)
0*
#43500000
r1.115294117647056 C
r1.115294117647056 N
r1.115294117647056 Y
r1.115294117647056 d
1>
1I
1T
1_
b100100 4
b1111 (
b1111 9
1)
1*
#44000000
0>
0I
0T
0_
b0 (
b0 9
0)
0*
#44500000
r1.112941176470585 C
r1.112941176470585 N
r1.112941176470585 Y
r1.112941176470585 d
1>
1I
1T
1_
b100101 4
b1111 (
b1111 9
1)
1*
#45000000
0>
0I
0T
0_
b0 (
b0 9
0)
0*
#45500000
r1.110588235294115 C
r1.110588235294115 N
r1.110588235294115 Y
r1.110588235294115 d
1>
1I
1T
1_
b100110 4
b1111 (
b1111 9
1)
1*
#46000000
0>
0I
0T
0_
b0 (
b0 9
0)
0*
#46500000
r1.108235294117644 C
r1.108235294117644 N
r1.108235294117644 Y
r1.108235294117644 d
1>
1I
1T
1_
b100111 4
b1111 (
b1111 9
1)
1*
#47000000
0>
0I
0T
0_
b0 (
b0 9
0)
0*
#47500000
r1.105882352941173 C
r1.105882352941173 N
r1.105882352941173 Y
r1.105882352941173 d
1>
1I
1T
1_
b101000 4
b1111 (
b1111 9
1)
1*
#48000000
0>
0I
0T
0_
b0 (
b0 9
0)
0*
#48500000
r1.103529411764703 C
r1.103529411764703 N
r1.103529411764703 Y
r1.103529411764703 d
1>
1I
1T
1_
b101001 4
b1111 (
b1111 9
1)
1*
#49000000
0>
0I
0T
0_
b0 (
b0 9
0)
0*
#49500000
r1.101176470588232 C
r1.101176470588232 N
r1.101176470588232 Y
r1.101176470588232 d
1>
1I
1T
1_
b101010 4
b1111 (
b1111 9
1)
1*
#50000000
0>
0I
0T
0_
b0 (
b0 9
0)
0*
#50500000
r1.098823529411761 C
r1.098823529411761 N
r1.098823529411761 Y
r1.098823529411761 d
1>
1I
1T
1_
b101011 4
b1111 (
b1111 9
1)
1*
#51000000
0>
0I
0T
0_
b0 (
b0 9
0)
0*
#51500000
r1.096470588235291 C
r1.096470588235291 N
r1.096470588235291 Y
r1.096470588235291 d
1>
1I
1T
1_
b101100 4
b1111 (
b1111 9
1)
1*
#52000000
0>
0I
0T
0_
b0 (
b0 9
0)
0*
#52500000
r1.09411764705882 C
r1.09411764705882 N
r1.09411764705882 Y
r1.09411764705882 d
1>
1I
1T
1_
b101101 4
b1111 (
b1111 9
1)
1*
#53000000
0>
0I
0T
0_
b0 (
b0 9
0)
0*
#53500000
r1.091764705882349 C
r1.091764705882349 N
r1.091764705882349 Y
r1.091764705882349 d
1>
1I
1T
1_
b101110 4
b1111 (
b1111 9
1)
1*
#54000000
0>
0I
0T
0_
b0 (
b0 9
0)
0*
#54500000
r1.089411764705879 C
r1.089411764705879 N
r1.089411764705879 Y
r1.089411764705879 d
1>
1I
1T
1_
b101111 4
b1111 (
b1111 9
1)
1*
#55000000
0>
0I
0T
0_
b0 (
b0 9
0)
0*
#55500000
r1.087058823529408 C
r1.087058823529408 N
r1.087058823529408 Y
r1.087058823529408 d
1>
1I
1T
1_
b110000 4
b1111 (
b1111 9
1)
1*
#56000000
0>
0I
0T
0_
b0 (
b0 9
0)
0*
#56500000
r1.084705882352937 C
r1.084705882352937 N
r1.084705882352937 Y
r1.084705882352937 d
1>
1I
1T
1_
b110001 4
b1111 (
b1111 9
1)
1*
#57000000
0>
0I
0T
0_
b0 (
b0 9
0)
0*
#57500000
r1.082352941176467 C
r1.082352941176467 N
r1.082352941176467 Y
r1.082352941176467 d
1>
1I
1T
1_
b110010 4
b1111 (
b1111 9
1)
1*
#58000000
0>
0I
0T
0_
b0 (
b0 9
0)
0*
#58500000
r1.079999999999996 C
r1.079999999999996 N
r1.079999999999996 Y
r1.079999999999996 d
1>
1I
1T
1_
b110011 4
b1111 (
b1111 9
1)
1*
#59000000
0>
0I
0T
0_
b0 (
b0 9
0)
0*
#59500000
r1.077647058823525 C
r1.077647058823525 N
r1.077647058823525 Y
r1.077647058823525 d
1>
1I
1T
1_
b110100 4
b1111 (
b1111 9
1)
1*
#60000000
0>
0I
0T
0_
b0 (
b0 9
0)
0*
#60500000
r1.075294117647055 C
r1.075294117647055 N
r1.075294117647055 Y
r1.075294117647055 d
1>
1I
1T
1_
b110101 4
b1111 (
b1111 9
1)
1*
#61000000
0>
0I
0T
0_
b0 (
b0 9
0)
0*
#61500000
r1.072941176470584 C
r1.072941176470584 N
r1.072941176470584 Y
r1.072941176470584 d
1>
1I
1T
1_
b110110 4
b1111 (
b1111 9
1)
1*
#62000000
0>
0I
0T
0_
b0 (
b0 9
0)
0*
#62500000
r1.070588235294113 C
r1.070588235294113 N
r1.070588235294113 Y
r1.070588235294113 d
1>
1I
1T
1_
b110111 4
b1111 (
b1111 9
1)
1*
#63000000
0>
0I
0T
0_
b0 (
b0 9
0)
0*
#63500000
r1.068235294117643 C
r1.068235294117643 N
r1.068235294117643 Y
r1.068235294117643 d
1>
1I
1T
1_
b111000 4
b1111 (
b1111 9
1)
1*
#64000000
0>
0I
0T
0_
b0 (
b0 9
0)
0*
#64500000
r1.065882352941172 C
r1.065882352941172 N
r1.065882352941172 Y
r1.065882352941172 d
1>
1I
1T
1_
b111001 4
b1111 (
b1111 9
1)
1*
#65000000
0>
0I
0T
0_
b0 (
b0 9
0)
0*
#65500000
r1.063529411764701 C
r1.063529411764701 N
r1.063529411764701 Y
r1.063529411764701 d
1>
1I
1T
1_
b111010 4
b1111 (
b1111 9
1)
1*
#66000000
0>
0I
0T
0_
b0 (
b0 9
0)
0*
#66500000
r1.061176470588231 C
r1.061176470588231 N
r1.061176470588231 Y
r1.061176470588231 d
1>
1I
1T
1_
b111011 4
b1111 (
b1111 9
1)
1*
#67000000
0>
0I
0T
0_
b0 (
b0 9
0)
0*
#67500000
r1.05882352941176 C
r1.05882352941176 N
r1.05882352941176 Y
r1.05882352941176 d
1>
1I
1T
1_
b111100 4
b1111 (
b1111 9
1)
1*
#68000000
0>
0I
0T
0_
b0 (
b0 9
0)
0*
#68500000
r1.056470588235289 C
r1.056470588235289 N
r1.056470588235289 Y
r1.056470588235289 d
1>
1I
1T
1_
b111101 4
b1111 (
b1111 9
1)
1*
#69000000
0>
0I
0T
0_
b0 (
b0 9
0)
0*
#69500000
r1.054117647058818 C
r1.054117647058818 N
r1.054117647058818 Y
r1.054117647058818 d
1>
1I
1T
1_
b111110 4
b1111 (
b1111 9
1)
1*
#70000000
0>
0I
0T
0_
b0 (
b0 9
0)
0*
#70500000
r1.051764705882348 C
r1.051764705882348 N
r1.051764705882348 Y
r1.051764705882348 d
1>
1I
1T
1_
b111111 4
b1111 (
b1111 9
1)
1*
#71000000
0>
0I
0T
0_
b0 (
b0 9
0)
0*
#71500000
r1.049411764705877 C
r1.049411764705877 N
r1.049411764705877 Y
r1.049411764705877 d
1>
1I
1T
1_
b1000000 4
b1111 (
b1111 9
1)
1*
#72000000
0>
0I
0T
0_
b0 (
b0 9
0)
0*
#72500000
r1.047058823529406 C
r1.047058823529406 N
r1.047058823529406 Y
r1.047058823529406 d
1>
1I
1T
1_
b1000001 4
b1111 (
b1111 9
1)
1*
#73000000
0>
0I
0T
0_
b0 (
b0 9
0)
0*
#73500000
r1.044705882352936 C
r1.044705882352936 N
r1.044705882352936 Y
r1.044705882352936 d
1>
1I
1T
1_
b1000010 4
b1111 (
b1111 9
1)
1*
#74000000
0>
0I
0T
0_
b0 (
b0 9
0)
0*
#74500000
r1.042352941176465 C
r1.042352941176465 N
r1.042352941176465 Y
r1.042352941176465 d
1>
1I
1T
1_
b1000011 4
b1111 (
b1111 9
1)
1*
#75000000
0>
0I
0T
0_
b0 (
b0 9
0)
0*
#75500000
r1.039999999999994 C
r1.039999999999994 N
r1.039999999999994 Y
r1.039999999999994 d
1>
1I
1T
1_
b1000100 4
b1111 (
b1111 9
1)
1*
#76000000
0>
0I
0T
0_
b0 (
b0 9
0)
0*
#76500000
r1.037647058823524 C
r1.037647058823524 N
r1.037647058823524 Y
r1.037647058823524 d
1>
1I
1T
1_
b1000101 4
b1111 (
b1111 9
1)
1*
#77000000
0>
0I
0T
0_
b0 (
b0 9
0)
0*
#77500000
r1.035294117647053 C
r1.035294117647053 N
r1.035294117647053 Y
r1.035294117647053 d
1>
1I
1T
1_
b1000110 4
b1111 (
b1111 9
1)
1*
#78000000
0>
0I
0T
0_
b0 (
b0 9
0)
0*
#78500000
r1.032941176470582 C
r1.032941176470582 N
r1.032941176470582 Y
r1.032941176470582 d
1>
1I
1T
1_
b1000111 4
b1111 (
b1111 9
1)
1*
#79000000
0>
0I
0T
0_
b0 (
b0 9
0)
0*
#79500000
r1.030588235294112 C
r1.030588235294112 N
r1.030588235294112 Y
r1.030588235294112 d
1>
1I
1T
1_
b1001000 4
b1111 (
b1111 9
1)
1*
#80000000
0>
0I
0T
0_
b0 (
b0 9
0)
0*
#80500000
r1.028235294117641 C
r1.028235294117641 N
r1.028235294117641 Y
r1.028235294117641 d
1>
1I
1T
1_
b1001001 4
b1111 (
b1111 9
1)
1*
#81000000
0>
0I
0T
0_
b0 (
b0 9
0)
0*
#81500000
r1.02588235294117 C
r1.02588235294117 N
r1.02588235294117 Y
r1.02588235294117 d
1>
1I
1T
1_
b1001010 4
b1111 (
b1111 9
1)
1*
#82000000
0>
0I
0T
0_
b0 (
b0 9
0)
0*
#82500000
r1.0235294117647 C
r1.0235294117647 N
r1.0235294117647 Y
r1.0235294117647 d
1>
1I
1T
1_
b1001011 4
b1111 (
b1111 9
1)
1*
#83000000
0>
0I
0T
0_
b0 (
b0 9
0)
0*
#83500000
r1.021176470588229 C
r1.021176470588229 N
r1.021176470588229 Y
r1.021176470588229 d
1>
1I
1T
1_
b1001100 4
b1111 (
b1111 9
1)
1*
#84000000
0>
0I
0T
0_
b0 (
b0 9
0)
0*
#84500000
r1.018823529411758 C
r1.018823529411758 N
r1.018823529411758 Y
r1.018823529411758 d
1>
1I
1T
1_
b1001101 4
b1111 (
b1111 9
1)
1*
#85000000
0>
0I
0T
0_
b0 (
b0 9
0)
0*
#85500000
r1.016470588235288 C
r1.016470588235288 N
r1.016470588235288 Y
r1.016470588235288 d
1>
1I
1T
1_
b1001110 4
b1111 (
b1111 9
1)
1*
#86000000
0>
0I
0T
0_
b0 (
b0 9
0)
0*
#86500000
r1.014117647058817 C
r1.014117647058817 N
r1.014117647058817 Y
r1.014117647058817 d
1>
1I
1T
1_
b1001111 4
b1111 (
b1111 9
1)
1*
#87000000
0>
0I
0T
0_
b0 (
b0 9
0)
0*
#87500000
r1.011764705882346 C
r1.011764705882346 N
r1.011764705882346 Y
r1.011764705882346 d
1>
1I
1T
1_
b1010000 4
b1111 (
b1111 9
1)
1*
#88000000
0>
0I
0T
0_
b0 (
b0 9
0)
0*
#88500000
r1.009411764705876 C
r1.009411764705876 N
r1.009411764705876 Y
r1.009411764705876 d
1>
1I
1T
1_
b1010001 4
b1111 (
b1111 9
1)
1*
#89000000
0>
0I
0T
0_
b0 (
b0 9
0)
0*
#89500000
r1.007058823529405 C
r1.007058823529405 N
r1.007058823529405 Y
r1.007058823529405 d
1>
1I
1T
1_
b1010010 4
b1111 (
b1111 9
1)
1*
#90000000
0>
0I
0T
0_
b0 (
b0 9
0)
0*
#90500000
r1.004705882352934 C
r1.004705882352934 N
r1.004705882352934 Y
r1.004705882352934 d
1>
1I
1T
1_
b1010011 4
b1111 (
b1111 9
1)
1*
#91000000
0>
0I
0T
0_
b0 (
b0 9
0)
0*
#91500000
r1.002352941176464 C
r1.002352941176464 N
r1.002352941176464 Y
r1.002352941176464 d
1>
1I
1T
1_
b1010100 4
b1111 (
b1111 9
1)
1*
#92000000
0>
0I
0T
0_
b0 (
b0 9
0)
0*
#92500000
r0.9999999999999932 C
r0.9999999999999932 N
r0.9999999999999932 Y
r0.9999999999999932 d
1>
1I
1T
1_
b1010101 4
b1111 (
b1111 9
1)
1*
#93000000
0>
0I
0T
0_
b0 (
b0 9
0)
0*
#93500000
r0.9976470588235227 C
r0.9976470588235227 N
r0.9976470588235227 Y
r0.9976470588235227 d
1>
1I
1T
1_
b1010110 4
b1111 (
b1111 9
1)
1*
#94000000
0>
0I
0T
0_
b0 (
b0 9
0)
0*
#94500000
r0.9952941176470521 C
r0.9952941176470521 N
r0.9952941176470521 Y
r0.9952941176470521 d
1>
1I
1T
1_
b1010111 4
b1111 (
b1111 9
1)
1*
#95000000
0>
0I
0T
0_
b0 (
b0 9
0)
0*
#95500000
r0.9929411764705816 C
r0.9929411764705816 N
r0.9929411764705816 Y
r0.9929411764705816 d
1>
1I
1T
1_
b1011000 4
b1111 (
b1111 9
1)
1*
#96000000
0>
0I
0T
0_
b0 (
b0 9
0)
0*
#96500000
r0.990588235294111 C
r0.990588235294111 N
r0.990588235294111 Y
r0.990588235294111 d
1>
1I
1T
1_
b1011001 4
b1111 (
b1111 9
1)
1*
#97000000
0>
0I
0T
0_
b0 (
b0 9
0)
0*
#97500000
r0.9882352941176404 C
r0.9882352941176404 N
r0.9882352941176404 Y
r0.9882352941176404 d
1>
1I
1T
1_
b1011010 4
b1111 (
b1111 9
1)
1*
#98000000
0>
0I
0T
0_
b0 (
b0 9
0)
0*
#98500000
r0.9858823529411699 C
r0.9858823529411699 N
r0.9858823529411699 Y
r0.9858823529411699 d
1>
1I
1T
1_
b1011011 4
b1111 (
b1111 9
1)
1*
#99000000
0>
0I
0T
0_
b0 (
b0 9
0)
0*
#99500000
r0.9835294117646993 C
r0.9835294117646993 N
r0.9835294117646993 Y
r0.9835294117646993 d
1>
1I
1T
1_
b1011100 4
b1111 (
b1111 9
1)
1*
#100000000
0>
0I
0T
0_
b0 (
b0 9
0)
0*
#100500000
r0.9811764705882288 C
r0.9811764705882288 N
r0.9811764705882288 Y
r0.9811764705882288 d
1>
1I
1T
1_
b1011101 4
b1111 (
b1111 9
1)
1*
#101000000
0>
0I
0T
0_
b0 (
b0 9
0)
0*
#101500000
r0.9788235294117582 C
r0.9788235294117582 N
r0.9788235294117582 Y
r0.9788235294117582 d
1>
1I
1T
1_
b1011110 4
b1111 (
b1111 9
1)
1*
#102000000
0>
0I
0T
0_
b0 (
b0 9
0)
0*
#102500000
r0.9764705882352877 C
r0.9764705882352877 N
r0.9764705882352877 Y
r0.9764705882352877 d
1>
1I
1T
1_
b1011111 4
b1111 (
b1111 9
1)
1*
#103000000
0>
0I
0T
0_
b0 (
b0 9
0)
0*
#103500000
r0.9741176470588171 C
r0.9741176470588171 N
r0.9741176470588171 Y
r0.9741176470588171 d
1>
1I
1T
1_
b1100000 4
b1111 (
b1111 9
1)
1*
#104000000
0>
0I
0T
0_
b0 (
b0 9
0)
0*
#104500000
r0.9717647058823465 C
r0.9717647058823465 N
r0.9717647058823465 Y
r0.9717647058823465 d
1>
1I
1T
1_
b1100001 4
b1111 (
b1111 9
1)
1*
#105000000
0>
0I
0T
0_
b0 (
b0 9
0)
0*
#105500000
r0.969411764705876 C
r0.969411764705876 N
r0.969411764705876 Y
r0.969411764705876 d
1>
1I
1T
1_
b1100010 4
b1111 (
b1111 9
1)
1*
#106000000
0>
0I
0T
0_
b0 (
b0 9
0)
0*
#106500000
r0.9670588235294054 C
r0.9670588235294054 N
r0.9670588235294054 Y
r0.9670588235294054 d
1>
1I
1T
1_
b1100011 4
b1111 (
b1111 9
1)
1*
#107000000
0>
0I
0T
0_
b0 (
b0 9
0)
0*
#107500000
r0.9647058823529349 C
r0.9647058823529349 N
r0.9647058823529349 Y
r0.9647058823529349 d
1>
1I
1T
1_
b1100100 4
b1111 (
b1111 9
1)
1*
#108000000
0>
0I
0T
0_
b0 (
b0 9
0)
0*
#108500000
r0.9623529411764643 C
r0.9623529411764643 N
r0.9623529411764643 Y
r0.9623529411764643 d
1>
1I
1T
1_
b1100101 4
b1111 (
b1111 9
1)
1*
#109000000
0>
0I
0T
0_
b0 (
b0 9
0)
0*
#109500000
r0.9599999999999937 C
r0.9599999999999937 N
r0.9599999999999937 Y
r0.9599999999999937 d
1>
1I
1T
1_
b1100110 4
b1111 (
b1111 9
1)
1*
#110000000
0>
0I
0T
0_
b0 (
b0 9
0)
0*
#110500000
r0.9576470588235232 C
r0.9576470588235232 N
r0.9576470588235232 Y
r0.9576470588235232 d
1>
1I
1T
1_
b1100111 4
b1111 (
b1111 9
1)
1*
#111000000
0>
0I
0T
0_
b0 (
b0 9
0)
0*
#111500000
r0.9552941176470526 C
r0.9552941176470526 N
r0.9552941176470526 Y
r0.9552941176470526 d
1>
1I
1T
1_
b1101000 4
b1111 (
b1111 9
1)
1*
#112000000
0>
0I
0T
0_
b0 (
b0 9
0)
0*
#112500000
r0.9529411764705821 C
r0.9529411764705821 N
r0.9529411764705821 Y
r0.9529411764705821 d
1>
1I
1T
1_
b1101001 4
b1111 (
b1111 9
1)
1*
#113000000
0>
0I
0T
0_
b0 (
b0 9
0)
0*
#113500000
r0.9505882352941115 C
r0.9505882352941115 N
r0.9505882352941115 Y
r0.9505882352941115 d
1>
1I
1T
1_
b1101010 4
b1111 (
b1111 9
1)
1*
#114000000
0>
0I
0T
0_
b0 (
b0 9
0)
0*
