Verilog/pixelTop_tb.vcd
$date
	Thu Nov 18 17:57:34 2021
$end
$version
	Icarus Verilog
$end
$timescale
	1ps
$end
$scope module pixelTop_tb $end
$var wire 1 ! anaReset $end
$var wire 32 " pixData [31:0] $end
$var wire 4 # read [3:0] $end
$var wire 8 $ pixelDataOut_3 [7:0] $end
$var wire 8 % pixelDataOut_2 [7:0] $end
$var wire 8 & pixelDataOut_1 [7:0] $end
$var wire 8 ' pixelDataOut_0 [7:0] $end
$var wire 1 ( expose $end
$var wire 1 ) erase $end
$var wire 1 * convert $end
$var wire 1 + anaRamp $end
$var wire 1 , anaBias1 $end
$var reg 1 - clk $end
$var reg 32 . data [31:0] $end
$var reg 32 / pixelDataOut [31:0] $end
$var reg 1 0 reset $end
$scope begin genblk1[0] $end
$upscope $end
$scope begin genblk1[1] $end
$upscope $end
$scope begin genblk1[2] $end
$upscope $end
$scope begin genblk1[3] $end
$upscope $end
$scope module pt1 $end
$var wire 1 ! ANARESET $end
$var wire 1 - CLOCK $end
$var wire 32 1 DATA [31:0] $end
$var wire 1 + RAMP $end
$var wire 1 0 RESET $end
$var wire 1 , VBN1 $end
$var wire 4 2 READ [3:0] $end
$var wire 1 ( EXPOSE $end
$var wire 1 ) ERASE $end
$var wire 1 * CONVERT $end
$scope module pa1 $end
$var wire 32 3 DATA [31:0] $end
$var wire 1 + RAMP $end
$var wire 1 ! RESET $end
$var wire 1 , VBN1 $end
$var wire 4 4 READ [3:0] $end
$var wire 1 ( EXPOSE $end
$var wire 1 ) ERASE $end
$scope begin genblk1[0] $end
$scope begin genblk2[0] $end
$scope module ps $end
$var wire 8 5 DATA [7:0] $end
$var wire 1 + RAMP $end
$var wire 1 6 READ $end
$var wire 1 ! RESET $end
$var wire 1 , VBN1 $end
$var wire 1 ( EXPOSE $end
$var wire 1 ) ERASE $end
$var reg 1 7 cmp $end
$var reg 8 8 p_data [7:0] $end
$var real 1 9 adc $end
$var real 1 : dv_pixel $end
$var real 1 ; lsb $end
$var real 1 < tmp $end
$var real 1 = v_erase $end
$upscope $end
$upscope $end
$scope begin genblk2[1] $end
$scope module ps $end
$var wire 8 > DATA [7:0] $end
$var wire 1 + RAMP $end
$var wire 1 ? READ $end
$var wire 1 ! RESET $end
$var wire 1 , VBN1 $end
$var wire 1 ( EXPOSE $end
$var wire 1 ) ERASE $end
$var reg 1 @ cmp $end
$var reg 8 A p_data [7:0] $end
$var real 1 B adc $end
$var real 1 C dv_pixel $end
$var real 1 D lsb $end
$var real 1 E tmp $end
$var real 1 F v_erase $end
$upscope $end
$upscope $end
$scope begin genblk2[2] $end
$scope module ps $end
$var wire 8 G DATA [7:0] $end
$var wire 1 + RAMP $end
$var wire 1 H READ $end
$var wire 1 ! RESET $end
$var wire 1 , VBN1 $end
$var wire 1 ( EXPOSE $end
$var wire 1 ) ERASE $end
$var reg 1 I cmp $end
$var reg 8 J p_data [7:0] $end
$var real 1 K adc $end
$var real 1 L dv_pixel $end
$var real 1 M lsb $end
$var real 1 N tmp $end
$var real 1 O v_erase $end
$upscope $end
$upscope $end
$scope begin genblk2[3] $end
$scope module ps $end
$var wire 8 P DATA [7:0] $end
$var wire 1 + RAMP $end
$var wire 1 Q READ $end
$var wire 1 ! RESET $end
$var wire 1 , VBN1 $end
$var wire 1 ( EXPOSE $end
$var wire 1 ) ERASE $end
$var reg 1 R cmp $end
$var reg 8 S p_data [7:0] $end
$var real 1 T adc $end
$var real 1 U dv_pixel $end
$var real 1 V lsb $end
$var real 1 W tmp $end
$var real 1 X v_erase $end
$upscope $end
$upscope $end
$upscope $end
$scope begin genblk1[1] $end
$scope begin genblk2[0] $end
$scope module ps $end
$var wire 8 Y DATA [7:0] $end
$var wire 1 + RAMP $end
$var wire 1 Z READ $end
$var wire 1 ! RESET $end
$var wire 1 , VBN1 $end
$var wire 1 ( EXPOSE $end
$var wire 1 ) ERASE $end
$var reg 1 [ cmp $end
$var reg 8 \ p_data [7:0] $end
$var real 1 ] adc $end
$var real 1 ^ dv_pixel $end
$var real 1 _ lsb $end
$var real 1 ` tmp $end
$var real 1 a v_erase $end
$upscope $end
$upscope $end
$scope begin genblk2[1] $end
$scope module ps $end
$var wire 8 b DATA [7:0] $end
$var wire 1 + RAMP $end
$var wire 1 c READ $end
$var wire 1 ! RESET $end
$var wire 1 , VBN1 $end
$var wire 1 ( EXPOSE $end
$var wire 1 ) ERASE $end
$var reg 1 d cmp $end
$var reg 8 e p_data [7:0] $end
$var real 1 f adc $end
$var real 1 g dv_pixel $end
$var real 1 h lsb $end
$var real 1 i tmp $end
$var real 1 j v_erase $end
$upscope $end
$upscope $end
$scope begin genblk2[2] $end
$scope module ps $end
$var wire 8 k DATA [7:0] $end
$var wire 1 + RAMP $end
$var wire 1 l READ $end
$var wire 1 ! RESET $end
$var wire 1 , VBN1 $end
$var wire 1 ( EXPOSE $end
$var wire 1 ) ERASE $end
$var reg 1 m cmp $end
$var reg 8 n p_data [7:0] $end
$var real 1 o adc $end
$var real 1 p dv_pixel $end
$var real 1 q lsb $end
$var real 1 r tmp $end
$var real 1 s v_erase $end
$upscope $end
$upscope $end
$scope begin genblk2[3] $end
$scope module ps $end
$var wire 8 t DATA [7:0] $end
$var wire 1 + RAMP $end
$var wire 1 u READ $end
$var wire 1 ! RESET $end
$var wire 1 , VBN1 $end
$var wire 1 ( EXPOSE $end
$var wire 1 ) ERASE $end
$var reg 1 v cmp $end
$var reg 8 w p_data [7:0] $end
$var real 1 x adc $end
$var real 1 y dv_pixel $end
$var real 1 z lsb $end
$var real 1 { tmp $end
$var real 1 | v_erase $end
$upscope $end
$upscope $end
$upscope $end
$scope begin genblk1[2] $end
$scope begin genblk2[0] $end
$scope module ps $end
$var wire 8 } DATA [7:0] $end
$var wire 1 + RAMP $end
$var wire 1 ~ READ $end
$var wire 1 ! RESET $end
$var wire 1 , VBN1 $end
$var wire 1 ( EXPOSE $end
$var wire 1 ) ERASE $end
$var reg 1 !" cmp $end
$var reg 8 "" p_data [7:0] $end
$var real 1 #" adc $end
$var real 1 $" dv_pixel $end
$var real 1 %" lsb $end
$var real 1 &" tmp $end
$var real 1 '" v_erase $end
$upscope $end
$upscope $end
$scope begin genblk2[1] $end
$scope module ps $end
$var wire 8 (" DATA [7:0] $end
$var wire 1 + RAMP $end
$var wire 1 )" READ $end
$var wire 1 ! RESET $end
$var wire 1 , VBN1 $end
$var wire 1 ( EXPOSE $end
$var wire 1 ) ERASE $end
$var reg 1 *" cmp $end
$var reg 8 +" p_data [7:0] $end
$var real 1 ," adc $end
$var real 1 -" dv_pixel $end
$var real 1 ." lsb $end
$var real 1 /" tmp $end
$var real 1 0" v_erase $end
$upscope $end
$upscope $end
$scope begin genblk2[2] $end
$scope module ps $end
$var wire 8 1" DATA [7:0] $end
$var wire 1 + RAMP $end
$var wire 1 2" READ $end
$var wire 1 ! RESET $end
$var wire 1 , VBN1 $end
$var wire 1 ( EXPOSE $end
$var wire 1 ) ERASE $end
$var reg 1 3" cmp $end
$var reg 8 4" p_data [7:0] $end
$var real 1 5" adc $end
$var real 1 6" dv_pixel $end
$var real 1 7" lsb $end
$var real 1 8" tmp $end
$var real 1 9" v_erase $end
$upscope $end
$upscope $end
$scope begin genblk2[3] $end
$scope module ps $end
$var wire 8 :" DATA [7:0] $end
$var wire 1 + RAMP $end
$var wire 1 ;" READ $end
$var wire 1 ! RESET $end
$var wire 1 , VBN1 $end
$var wire 1 ( EXPOSE $end
$var wire 1 ) ERASE $end
$var reg 1 <" cmp $end
$var reg 8 =" p_data [7:0] $end
$var real 1 >" adc $end
$var real 1 ?" dv_pixel $end
$var real 1 @" lsb $end
$var real 1 A" tmp $end
$var real 1 B" v_erase $end
$upscope $end
$upscope $end
$upscope $end
$scope begin genblk1[3] $end
$scope begin genblk2[0] $end
$scope module ps $end
$var wire 8 C" DATA [7:0] $end
$var wire 1 + RAMP $end
$var wire 1 D" READ $end
$var wire 1 ! RESET $end
$var wire 1 , VBN1 $end
$var wire 1 ( EXPOSE $end
$var wire 1 ) ERASE $end
$var reg 1 E" cmp $end
$var reg 8 F" p_data [7:0] $end
$var real 1 G" adc $end
$var real 1 H" dv_pixel $end
$var real 1 I" lsb $end
$var real 1 J" tmp $end
$var real 1 K" v_erase $end
$upscope $end
$upscope $end
$scope begin genblk2[1] $end
$scope module ps $end
$var wire 8 L" DATA [7:0] $end
$var wire 1 + RAMP $end
$var wire 1 M" READ $end
$var wire 1 ! RESET $end
$var wire 1 , VBN1 $end
$var wire 1 ( EXPOSE $end
$var wire 1 ) ERASE $end
$var reg 1 N" cmp $end
$var reg 8 O" p_data [7:0] $end
$var real 1 P" adc $end
$var real 1 Q" dv_pixel $end
$var real 1 R" lsb $end
$var real 1 S" tmp $end
$var real 1 T" v_erase $end
$upscope $end
$upscope $end
$scope begin genblk2[2] $end
$scope module ps $end
$var wire 8 U" DATA [7:0] $end
$var wire 1 + RAMP $end
$var wire 1 V" READ $end
$var wire 1 ! RESET $end
$var wire 1 , VBN1 $end
$var wire 1 ( EXPOSE $end
$var wire 1 ) ERASE $end
$var reg 1 W" cmp $end
$var reg 8 X" p_data [7:0] $end
$var real 1 Y" adc $end
$var real 1 Z" dv_pixel $end
$var real 1 [" lsb $end
$var real 1 \" tmp $end
$var real 1 ]" v_erase $end
$upscope $end
$upscope $end
$scope begin genblk2[3] $end
$scope module ps $end
$var wire 8 ^" DATA [7:0] $end
$var wire 1 + RAMP $end
$var wire 1 _" READ $end
$var wire 1 ! RESET $end
$var wire 1 , VBN1 $end
$var wire 1 ( EXPOSE $end
$var wire 1 ) ERASE $end
$var reg 1 `" cmp $end
$var reg 8 a" p_data [7:0] $end
$var real 1 b" adc $end
$var real 1 c" dv_pixel $end
$var real 1 d" lsb $end
$var real 1 e" tmp $end
$var real 1 f" v_erase $end
$upscope $end
$upscope $end
$upscope $end
$upscope $end
$scope module ps1 $end
$var wire 1 - clock $end
$var wire 1 0 reset $end
$var reg 1 * convert $end
$var reg 1 ) erase $end
$var reg 1 ( expose $end
$var reg 3 g" next_state [2:0] $end
$var reg 4 h" read [3:0] $end
$var reg 4 i" read2 [3:0] $end
$var reg 3 j" state [2:0] $end
$var integer 32 k" counter [31:0] $end
$upscope $end
$upscope $end
$scope begin $ivl_for_loop0 $end
$var integer 32 l" i [31:0] $end
$upscope $end
$scope begin $ivl_for_loop1 $end
$var integer 32 m" i [31:0] $end
$upscope $end
$upscope $end
$enddefinitions $end
#0
$dumpvars
b0 m"
b0 l"
b0 k"
b100 j"
bx i"
bx h"
b0 g"
r1.2 f"
r0 e"
r0.004705882352941176 d"
r0.1 c"
r0 b"
bx a"
x`"
x_"
bx ^"
r1.2 ]"
r0 \"
r0.004705882352941176 ["
r0.2 Z"
r0 Y"
bx X"
xW"
xV"
bx U"
r1.2 T"
r0 S"
r0.004705882352941176 R"
r0.3 Q"
r0 P"
bx O"
xN"
xM"
bx L"
r1.2 K"
r0 J"
r0.004705882352941176 I"
r0.4 H"
r0 G"
bx F"
xE"
xD"
bx C"
r1.2 B"
r0 A"
r0.004705882352941176 @"
r0.5 ?"
r0 >"
bx ="
x<"
x;"
bx :"
r1.2 9"
r0 8"
r0.004705882352941176 7"
r0.6 6"
r0 5"
bx 4"
x3"
x2"
bx 1"
r1.2 0"
r0 /"
r0.004705882352941176 ."
r0.7 -"
r0 ,"
bx +"
x*"
x)"
bx ("
r1.2 '"
r0 &"
r0.004705882352941176 %"
r0.8 $"
r0 #"
bx ""
x!"
x~
bx }
r1.2 |
r0 {
r0.004705882352941176 z
r0.9 y
r0 x
bx w
xv
xu
bx t
r1.2 s
r0 r
r0.004705882352941176 q
r1 p
r0 o
bx n
xm
xl
bx k
r1.2 j
r0 i
r0.004705882352941176 h
r0.1 g
r0 f
bx e
xd
xc
bx b
r1.2 a
r0 `
r0.004705882352941176 _
r0.2 ^
r0 ]
bx \
x[
xZ
bx Y
r1.2 X
r0 W
r0.004705882352941176 V
r0.3 U
r0 T
bx S
xR
xQ
bx P
r1.2 O
r0 N
r0.004705882352941176 M
r0.4 L
r0 K
bx J
xI
xH
bx G
r1.2 F
r0 E
r0.004705882352941176 D
r0.5 C
r0 B
bx A
x@
x?
bx >
r1.2 =
r0 <
r0.004705882352941176 ;
r0.6 :
r0 9
bx 8
x7
x6
bx 5
bx 4
bx 3
bx 2
bx 1
10
b0 /
b0 .
0-
0,
0+
x*
x)
x(
b0 '
b0 &
b0 %
b0 $
bx #
bx "
1!
$end
#500000
17
1@
1I
1R
1[
1d
1m
1v
1!"
1*"
13"
1<"
1E"
1N"
1W"
1`"
b0 j"
r0.004705882352941176 9
r0.004705882352941176 B
r0.004705882352941176 K
r0.004705882352941176 T
r0.004705882352941176 ]
r0.004705882352941176 f
r0.004705882352941176 o
r0.004705882352941176 x
r0.004705882352941176 #"
r0.004705882352941176 ,"
r0.004705882352941176 5"
r0.004705882352941176 >"
r0.004705882352941176 G"
r0.004705882352941176 P"
r0.004705882352941176 Y"
r0.004705882352941176 b"
x+
x,
00
1-
#1000000
b0 5
b0 >
b0 G
b0 P
b0 Y
b0 b
b0 k
b0 t
b0 }
b0 ("
b0 1"
b0 :"
b0 C"
b0 L"
b0 U"
b0 ^"
b0 "
b0 1
b0 3
0_"
0V"
0M"
0D"
0;"
02"
0)"
0~
0u
0l
0c
0Z
0Q
0H
0?
06
r0 b"
0`"
b0 a"
r1.2 e"
r0 Y"
0W"
b0 X"
r1.2 \"
r0 P"
0N"
b0 O"
r1.2 S"
r0 G"
0E"
b0 F"
r1.2 J"
r0 >"
0<"
b0 ="
r1.2 A"
r0 5"
03"
b0 4"
r1.2 8"
r0 ,"
0*"
b0 +"
r1.2 /"
r0 #"
0!"
b0 ""
r1.2 &"
r0 x
0v
b0 w
r1.2 {
r0 o
0m
b0 n
r1.2 r
r0 f
0d
b0 e
r1.2 i
r0 ]
0[
b0 \
r1.2 `
r0 T
0R
b0 S
r1.2 W
r0 K
0I
b0 J
r1.2 N
r0 B
0@
b0 A
r1.2 E
r0 9
07
b0 8
r1.2 <
0*
0(
b0 #
b0 2
b0 4
b0 h"
1)
0+
0,
0-
#1500000
b1 k"
1-
#2000000
0-
#2500000
b10 k"
1-
#3000000
0-
#3500000
b11 k"
1-
#4000000
0-
#4500000
b100 k"
1-
#5000000
0-
#5500000
b101 k"
1-
#6000000
0-
#6500000
b0 k"
b100 j"
b1 g"
1-
#7000000
0)
0-
#7500000
b1 j"
1-
#8000000
1(
0-
#8500000
r1.199529411764706 e"
r1.199058823529412 \"
r1.198588235294118 S"
r1.198117647058824 J"
r1.197647058823529 A"
r1.197176470588235 8"
r1.196705882352941 /"
r1.196235294117647 &"
r1.195764705882353 {
r1.195294117647059 r
r1.199529411764706 i
r1.199058823529412 `
r1.198588235294118 W
r1.198117647058824 N
r1.197647058823529 E
r1.197176470588235 <
1,
b1 k"
1-
#9000000
0,
0-
#9500000
r1.194352941176471 <
r1.195294117647059 E
r1.196235294117647 N
r1.197176470588235 W
r1.198117647058824 `
r1.199058823529412 i
r1.190588235294118 r
r1.191529411764706 {
r1.192470588235294 &"
r1.193411764705882 /"
r1.194352941176471 8"
r1.195294117647059 A"
r1.196235294117647 J"
r1.197176470588235 S"
r1.198117647058824 \"
r1.199058823529412 e"
1,
b10 k"
1-
#10000000
0,
0-
#10500000
r1.198588235294117 e"
r1.197176470588235 \"
r1.195764705882353 S"
r1.194352941176471 J"
r1.192941176470588 A"
r1.191529411764706 8"
r1.190117647058823 /"
r1.188705882352941 &"
r1.187294117647059 {
r1.185882352941177 r
r1.198588235294117 i
r1.197176470588235 `
r1.195764705882353 W
r1.194352941176471 N
r1.192941176470588 E
r1.191529411764706 <
1,
b11 k"
1-
#11000000
0,
0-
#11500000
r1.188705882352941 <
r1.190588235294117 E
r1.192470588235294 N
r1.19435294117647 W
r1.196235294117647 `
r1.198117647058823 i
r1.181176470588235 r
r1.183058823529411 {
r1.184941176470588 &"
r1.186823529411764 /"
r1.188705882352941 8"
r1.190588235294117 A"
r1.192470588235294 J"
r1.19435294117647 S"
r1.196235294117647 \"
r1.198117647058823 e"
1,
b100 k"
1-
#12000000
0,
0-
#12500000
r1.197647058823529 e"
r1.195294117647059 \"
r1.192941176470588 S"
r1.190588235294118 J"
r1.188235294117647 A"
r1.185882352941177 8"
r1.183529411764705 /"
r1.181176470588235 &"
r1.178823529411764 {
r1.176470588235294 r
r1.197647058823529 i
r1.195294117647059 `
r1.192941176470588 W
r1.190588235294118 N
r1.188235294117647 E
r1.185882352941177 <
1,
b101 k"
1-
#13000000
0,
0-
#13500000
r1.183058823529412 <
r1.185882352941176 E
r1.188705882352941 N
r1.191529411764705 W
r1.194352941176471 `
r1.197176470588235 i
r1.171764705882353 r
r1.174588235294117 {
r1.177411764705883 &"
r1.180235294117647 /"
r1.183058823529412 8"
r1.185882352941176 A"
r1.188705882352941 J"
r1.191529411764705 S"
r1.194352941176471 \"
r1.197176470588235 e"
1,
b110 k"
1-
#14000000
0,
0-
#14500000
r1.19670588235294 e"
r1.193411764705882 \"
r1.190117647058823 S"
r1.186823529411765 J"
r1.183529411764705 A"
r1.180235294117647 8"
r1.176941176470588 /"
r1.17364705882353 &"
r1.17035294117647 {
r1.167058823529412 r
r1.19670588235294 i
r1.193411764705882 `
r1.190117647058823 W
r1.186823529411765 N
r1.183529411764705 E
r1.180235294117647 <
1,
b111 k"
1-
#15000000
0,
0-
#15500000
r1.177411764705883 <
r1.181176470588235 E
r1.184941176470588 N
r1.18870588235294 W
r1.192470588235294 `
r1.196235294117646 i
r1.162352941176471 r
r1.166117647058823 {
r1.169882352941177 &"
r1.173647058823529 /"
r1.177411764705883 8"
r1.181176470588235 A"
r1.184941176470588 J"
r1.18870588235294 S"
r1.192470588235294 \"
r1.196235294117646 e"
1,
b1000 k"
1-
#16000000
0,
0-
#16500000
r1.195764705882352 e"
r1.191529411764706 \"
r1.187294117647058 S"
r1.183058823529412 J"
r1.178823529411764 A"
r1.174588235294118 8"
r1.17035294117647 /"
r1.166117647058824 &"
r1.161882352941176 {
r1.15764705882353 r
r1.195764705882352 i
r1.191529411764706 `
r1.187294117647058 W
r1.183058823529412 N
r1.178823529411764 E
r1.174588235294118 <
1,
b1001 k"
1-
#17000000
0,
0-
#17500000
r1.171764705882353 <
r1.176470588235293 E
r1.181176470588235 N
r1.185882352941175 W
r1.190588235294118 `
r1.195294117647058 i
r1.152941176470589 r
r1.157647058823529 {
r1.162352941176471 &"
r1.167058823529411 /"
r1.171764705882353 8"
r1.176470588235293 A"
r1.181176470588235 J"
r1.185882352941175 S"
r1.190588235294118 \"
r1.195294117647058 e"
1,
b1010 k"
1-
#18000000
0,
0-
#18500000
r1.194823529411764 e"
r1.18964705882353 \"
r1.184470588235293 S"
r1.179294117647059 J"
r1.174117647058823 A"
r1.168941176470589 8"
r1.163764705882352 /"
r1.158588235294118 &"
r1.153411764705882 {
r1.148235294117648 r
r1.194823529411764 i
r1.18964705882353 `
r1.184470588235293 W
r1.179294117647059 N
r1.174117647058823 E
r1.168941176470589 <
1,
b1011 k"
1-
#19000000
0,
0-
#19500000
r1.166117647058824 <
r1.171764705882352 E
r1.177411764705883 N
r1.183058823529411 W
r1.188705882352941 `
r1.194352941176469 i
r1.143529411764707 r
r1.149176470588235 {
r1.154823529411765 &"
r1.160470588235293 /"
r1.166117647058824 8"
r1.171764705882352 A"
r1.177411764705883 J"
r1.183058823529411 S"
r1.188705882352941 \"
r1.194352941176469 e"
1,
b1100 k"
1-
#20000000
0,
0-
#20500000
r1.193882352941175 e"
r1.187764705882353 \"
r1.181647058823528 S"
r1.175529411764706 J"
r1.169411764705881 A"
r1.163294117647059 8"
r1.157176470588234 /"
r1.151058823529412 &"
r1.144941176470587 {
r1.138823529411765 r
r1.193882352941175 i
r1.187764705882353 `
r1.181647058823528 W
r1.175529411764706 N
r1.169411764705881 E
r1.163294117647059 <
1,
b1101 k"
1-
#21000000
0,
0-
#21500000
r1.160470588235295 <
r1.167058823529411 E
r1.17364705882353 N
r1.180235294117646 W
r1.186823529411765 `
r1.193411764705881 i
r1.134117647058824 r
r1.14070588235294 {
r1.147294117647059 &"
r1.153882352941175 /"
r1.160470588235295 8"
r1.167058823529411 A"
r1.17364705882353 J"
r1.180235294117646 S"
r1.186823529411765 \"
r1.193411764705881 e"
1,
b1110 k"
1-
#22000000
0,
0-
#22500000
r1.192941176470587 e"
r1.185882352941177 \"
r1.178823529411763 S"
r1.171764705882353 J"
r1.16470588235294 A"
r1.15764705882353 8"
r1.150588235294117 /"
r1.143529411764707 &"
r1.136470588235293 {
r1.129411764705883 r
r1.192941176470587 i
r1.185882352941177 `
r1.178823529411763 W
r1.171764705882353 N
r1.16470588235294 E
r1.15764705882353 <
1,
b1111 k"
1-
#23000000
0,
0-
#23500000
r1.154823529411765 <
r1.162352941176469 E
r1.169882352941177 N
r1.177411764705881 W
r1.184941176470588 `
r1.192470588235292 i
r1.124705882352942 r
r1.132235294117646 {
r1.139764705882354 &"
r1.147294117647058 /"
r1.154823529411765 8"
r1.162352941176469 A"
r1.169882352941177 J"
r1.177411764705881 S"
r1.184941176470588 \"
r1.192470588235292 e"
1,
b10000 k"
1-
#24000000
0,
0-
#24500000
r1.191999999999998 e"
r1.184 \"
r1.175999999999998 S"
r1.168 J"
r1.159999999999999 A"
r1.152000000000001 8"
r1.143999999999999 /"
r1.136000000000001 &"
r1.127999999999999 {
r1.120000000000001 r
r1.191999999999998 i
r1.184 `
r1.175999999999998 W
r1.168 N
r1.159999999999999 E
r1.152000000000001 <
1,
b10001 k"
1-
#25000000
0,
0-
#25500000
r1.149176470588236 <
r1.157647058823528 E
r1.166117647058824 N
r1.174588235294116 W
r1.183058823529412 `
r1.191529411764704 i
r1.11529411764706 r
r1.123764705882352 {
r1.132235294117648 &"
r1.14070588235294 /"
r1.149176470588236 8"
r1.157647058823528 A"
r1.166117647058824 J"
r1.174588235294116 S"
r1.183058823529412 \"
r1.191529411764704 e"
1,
b10010 k"
1-
#26000000
0,
0-
#26500000
r1.19105882352941 e"
r1.182117647058824 \"
r1.173176470588233 S"
r1.164235294117647 J"
r1.155294117647057 A"
r1.146352941176471 8"
r1.137411764705881 /"
r1.128470588235295 &"
r1.119529411764705 {
r1.110588235294119 r
r1.19105882352941 i
r1.182117647058824 `
r1.173176470588233 W
r1.164235294117647 N
r1.155294117647057 E
r1.146352941176471 <
1,
b10011 k"
1-
#27000000
0,
0-
#27500000
r1.143529411764707 <
r1.152941176470587 E
r1.162352941176471 N
r1.171764705882351 W
r1.181176470588235 `
r1.190588235294116 i
r1.105882352941178 r
r1.115294117647058 {
r1.124705882352942 &"
r1.134117647058822 /"
r1.143529411764707 8"
r1.152941176470587 A"
r1.162352941176471 J"
r1.171764705882351 S"
r1.181176470588235 \"
r1.190588235294116 e"
1,
b10100 k"
1-
#28000000
0,
0-
#28500000
r1.190117647058821 e"
r1.180235294117647 \"
r1.170352941176469 S"
r1.160470588235295 J"
r1.150588235294116 A"
r1.140705882352942 8"
r1.130823529411763 /"
r1.120941176470589 &"
r1.111058823529411 {
r1.101176470588237 r
r1.190117647058821 i
r1.180235294117647 `
r1.170352941176469 W
r1.160470588235295 N
r1.150588235294116 E
r1.140705882352942 <
1,
b10101 k"
1-
#29000000
0,
0-
#29500000
r1.137882352941177 <
r1.148235294117645 E
r1.158588235294118 N
r1.168941176470586 W
r1.179294117647059 `
r1.189647058823527 i
r1.096470588235295 r
r1.106823529411763 {
r1.117176470588236 &"
r1.127529411764704 /"
r1.137882352941177 8"
r1.148235294117645 A"
r1.158588235294118 J"
r1.168941176470586 S"
r1.179294117647059 \"
r1.189647058823527 e"
1,
b10110 k"
1-
#30000000
0,
0-
#30500000
r1.189176470588233 e"
r1.178352941176471 \"
r1.167529411764704 S"
r1.156705882352942 J"
r1.145882352941175 A"
r1.135058823529413 8"
r1.124235294117645 /"
r1.113411764705883 &"
r1.102588235294116 {
r1.091764705882354 r
r1.189176470588233 i
r1.178352941176471 `
r1.167529411764704 W
r1.156705882352942 N
r1.145882352941175 E
r1.135058823529413 <
1,
b10111 k"
1-
#31000000
0,
0-
#31500000
r1.132235294117648 <
r1.143529411764704 E
r1.154823529411765 N
r1.166117647058821 W
r1.177411764705883 `
r1.188705882352939 i
r1.087058823529413 r
r1.098352941176469 {
r1.109647058823531 &"
r1.120941176470587 /"
r1.132235294117648 8"
r1.143529411764704 A"
r1.154823529411765 J"
r1.166117647058821 S"
r1.177411764705883 \"
r1.188705882352939 e"
1,
b11000 k"
1-
#32000000
0,
0-
#32500000
r1.188235294117644 e"
r1.176470588235294 \"
r1.164705882352939 S"
r1.152941176470589 J"
r1.141176470588233 A"
r1.129411764705883 8"
r1.117647058823528 /"
r1.105882352941178 &"
r1.094117647058822 {
r1.082352941176472 r
r1.188235294117644 i
r1.176470588235294 `
r1.164705882352939 W
r1.152941176470589 N
r1.141176470588233 E
r1.129411764705883 <
1,
b11001 k"
1-
#33000000
0,
0-
#33500000
r1.126588235294119 <
r1.138823529411763 E
r1.151058823529412 N
r1.163294117647056 W
r1.175529411764706 `
r1.18776470588235 i
r1.077647058823531 r
r1.089882352941175 {
r1.102117647058825 &"
r1.114352941176469 /"
r1.126588235294119 8"
r1.138823529411763 A"
r1.151058823529412 J"
r1.163294117647056 S"
r1.175529411764706 \"
r1.18776470588235 e"
1,
b11010 k"
1-
#34000000
0,
0-
#34500000
r1.187294117647056 e"
r1.174588235294118 \"
r1.161882352941174 S"
r1.149176470588236 J"
r1.136470588235292 A"
r1.123764705882354 8"
r1.11105882352941 /"
r1.098352941176472 &"
r1.085647058823528 {
r1.07294117647059 r
r1.187294117647056 i
r1.174588235294118 `
r1.161882352941174 W
r1.149176470588236 N
r1.136470588235292 E
r1.123764705882354 <
1,
b11011 k"
1-
#35000000
0,
0-
#35500000
r1.120941176470589 <
r1.134117647058821 E
r1.147294117647059 N
r1.160470588235291 W
r1.17364705882353 `
r1.186823529411762 i
r1.068235294117649 r
r1.081411764705881 {
r1.094588235294119 &"
r1.107764705882351 /"
r1.120941176470589 8"
r1.134117647058821 A"
r1.147294117647059 J"
r1.160470588235291 S"
r1.17364705882353 \"
r1.186823529411762 e"
1,
b11100 k"
1-
#36000000
0,
0-
#36500000
r1.186352941176468 e"
r1.172705882352941 \"
r1.159058823529409 S"
r1.145411764705883 J"
r1.131764705882351 A"
r1.118117647058825 8"
r1.104470588235292 /"
r1.090823529411766 &"
r1.077176470588234 {
r1.063529411764708 r
r1.186352941176468 i
r1.172705882352941 `
r1.159058823529409 W
r1.145411764705883 N
r1.131764705882351 E
r1.118117647058825 <
1,
b11101 k"
1-
#37000000
0,
0-
#37500000
r1.11529411764706 <
r1.12941176470588 E
r1.143529411764707 N
r1.157647058823527 W
r1.171764705882353 `
r1.185882352941173 i
r1.058823529411766 r
r1.072941176470587 {
r1.087058823529413 &"
r1.101176470588233 /"
r1.11529411764706 8"
r1.12941176470588 A"
r1.143529411764707 J"
r1.157647058823527 S"
r1.171764705882353 \"
r1.185882352941173 e"
1,
b11110 k"
1-
#38000000
0,
0-
#38500000
r1.185411764705879 e"
r1.170823529411765 \"
r1.156235294117644 S"
r1.14164705882353 J"
r1.127058823529409 A"
r1.112470588235295 8"
r1.097882352941174 /"
r1.08329411764706 &"
r1.068705882352939 {
r1.054117647058825 r
r1.185411764705879 i
r1.170823529411765 `
r1.156235294117644 W
r1.14164705882353 N
r1.127058823529409 E
r1.112470588235295 <
1,
b11111 k"
1-
#39000000
0,
0-
#39500000
r1.109647058823531 <
r1.124705882352939 E
r1.139764705882354 N
r1.154823529411762 W
r1.169882352941177 `
r1.184941176470585 i
r1.049411764705884 r
r1.064470588235292 {
r1.079529411764707 &"
r1.094588235294115 /"
r1.109647058823531 8"
r1.124705882352939 A"
r1.139764705882354 J"
r1.154823529411762 S"
r1.169882352941177 \"
r1.184941176470585 e"
1,
b100000 k"
1-
#40000000
0,
0-
#40500000
r1.184470588235291 e"
r1.168941176470589 \"
r1.153411764705879 S"
r1.137882352941177 J"
r1.122352941176468 A"
r1.106823529411766 8"
r1.091294117647057 /"
r1.075764705882355 &"
r1.060235294117645 {
r1.044705882352943 r
r1.184470588235291 i
r1.168941176470589 `
r1.153411764705879 W
r1.137882352941177 N
r1.122352941176468 E
r1.106823529411766 <
1,
b100001 k"
1-
#41000000
0,
0-
#41500000
r1.104000000000001 <
r1.119999999999997 E
r1.136000000000001 N
r1.151999999999997 W
r1.168 `
r1.183999999999996 i
r1.040000000000002 r
r1.055999999999998 {
r1.072000000000002 &"
r1.087999999999998 /"
r1.104000000000001 8"
r1.119999999999997 A"
r1.136000000000001 J"
r1.151999999999997 S"
r1.168 \"
r1.183999999999996 e"
1,
b100010 k"
1-
#42000000
0,
0-
#42500000
r1.183529411764702 e"
r1.167058823529412 \"
r1.150588235294114 S"
r1.134117647058824 J"
r1.117647058823527 A"
r1.101176470588237 8"
r1.084705882352939 /"
r1.068235294117649 &"
r1.051764705882351 {
r1.035294117647061 r
r1.183529411764702 i
r1.167058823529412 `
r1.150588235294114 W
r1.134117647058824 N
r1.117647058823527 E
r1.101176470588237 <
1,
b100011 k"
1-
#43000000
0,
0-
#43500000
r1.098352941176472 <
r1.115294117647056 E
r1.132235294117648 N
r1.149176470588232 W
r1.166117647058824 `
r1.183058823529408 i
r1.03058823529412 r
r1.047529411764704 {
r1.064470588235296 &"
r1.08141176470588 /"
r1.098352941176472 8"
r1.115294117647056 A"
r1.132235294117648 J"
r1.149176470588232 S"
r1.166117647058824 \"
r1.183058823529408 e"
1,
b100100 k"
1-
#44000000
0,
0-
