Verilog/pixelState_tb_plt.vcd
$date
	Mon Nov  1 18:48:49 2021
$end
$version
	GTKWave Analyzer v3.3.104 (w)1999-2020 BSI
$end
$timescale
	1ps
$end
$scope module PIXEL_STATE_TB $end
$var wire 1 * conv_1 $end
$scope module dout $end
$var integer 32 ( counter1 $end
$upscope $end
$var wire 1 . conv_2 $end
$var wire 1 2 conv_3 $end
$scope module dout $end
$var integer 32 $ counter0 $end
$upscope $end
$var reg 1 " reset $end
$var wire 1 ' read_0 $end
$scope module dout $end
$var integer 32 0 counter3 $end
$upscope $end
$var wire 1 & conv_0 $end
$var wire 1 # erase $end
$var wire 1 + read_1 $end
$var wire 1 / read_2 $end
$var wire 1 - ex_2 $end
$var wire 1 ) ex_1 $end
$var wire 1 % ex_0 $end
$scope module dout $end
$var integer 32 , counter2 $end
$upscope $end
$var wire 1 1 ex_3 $end
$var wire 1 3 read_3 $end
$upscope $end
$enddefinitions $end
#0
$dumpvars
x%
x#
x1
02
0*
b0 (
b0 ,
b0 0
b0 $
0&
x3
x)
1"
x+
0.
x'
x/
x-
$end
#2000
0-
01
0%
1#
0/
03
0)
0'
0+
#20000
0"
#21000
b1 (
b1 ,
b1 0
#23000
b10 0
b10 ,
b10 (
b1 $
#25000
b10 $
b11 (
b11 ,
b11 0
#27000
b100 0
b100 ,
b100 (
b11 $
#29000
b100 $
b101 (
b101 ,
b101 0
#31000
b0 0
b0 ,
b0 (
b101 $
#32000
0#
#33000
b0 $
#36000
1%
#37000
b1 $
#39000
b10 $
#41000
b11 $
#43000
b100 $
#45000
b101 $
#47000
b110 $
#49000
b111 $
#51000
b1000 $
#53000
b1001 $
#55000
b1010 $
#57000
b1011 $
#59000
b1100 $
#61000
b1101 $
#63000
b1110 $
#65000
b1111 $
#67000
b10000 $
#69000
b10001 $
#71000
b10010 $
#73000
b10011 $
#75000
b10100 $
#77000
b10101 $
#79000
b10110 $
#81000
b10111 $
#83000
b11000 $
#85000
b11001 $
#87000
b11010 $
#89000
b11011 $
#91000
b11100 $
#93000
b11101 $
#95000
b11110 $
#97000
b11111 $
#99000
b100000 $
#101000
b100001 $
#103000
b100010 $
#105000
b100011 $
#107000
b100100 $
#109000
b100101 $
#111000
b100110 $
#113000
b100111 $
#115000
b101000 $
#117000
b101001 $
#119000
b101010 $
#121000
b101011 $
#123000
b101100 $
#125000
b101101 $
#127000
b101110 $
#129000
b101111 $
#131000
b110000 $
#133000
b110001 $
#135000
b110010 $
#137000
b110011 $
#139000
b110100 $
#141000
b110101 $
#143000
b110110 $
#145000
b110111 $
#147000
b111000 $
#149000
b111001 $
#151000
b111010 $
#153000
b111011 $
#155000
b111100 $
#157000
b111101 $
#159000
b111110 $
#161000
b111111 $
#163000
b1000000 $
#165000
b1000001 $
#167000
b1000010 $
#169000
b1000011 $
#171000
b1000100 $
#173000
b1000101 $
#175000
b1000110 $
#177000
b1000111 $
#179000
b1001000 $
#181000
b1001001 $
#183000
b1001010 $
#185000
b1001011 $
#187000
b1001100 $
#189000
b1001101 $
#191000
b1001110 $
#193000
b1001111 $
#195000
b1010000 $
#197000
b1010001 $
#199000
b1010010 $
#201000
b1010011 $
#203000
b1010100 $
#205000
b1010101 $
#207000
b1010110 $
#209000
b1010111 $
#211000
b1011000 $
#213000
b1011001 $
#215000
b1011010 $
#217000
b1011011 $
#219000
b1011100 $
#221000
b1011101 $
#223000
b1011110 $
#225000
b1011111 $
#227000
b1100000 $
#229000
b1100001 $
#231000
b1100010 $
#233000
b1100011 $
#235000
b1100100 $
#237000
b1100101 $
#239000
b1100110 $
#241000
b1100111 $
#243000
b1101000 $
#245000
b1101001 $
#247000
b1101010 $
#249000
b1101011 $
#251000
b1101100 $
#253000
b1101101 $
#255000
b1101110 $
#257000
b1101111 $
#259000
b1110000 $
#261000
b1110001 $
#263000
b1110010 $
#265000
b1110011 $
#267000
b1110100 $
#269000
b1110101 $
#271000
b1110110 $
#273000
b1110111 $
#275000
b1111000 $
#277000
b1111001 $
#279000
b1111010 $
#281000
b1111011 $
#283000
b1111100 $
#285000
b1111101 $
#287000
b1111110 $
#289000
b1111111 $
#291000
b10000000 $
#293000
b10000001 $
#295000
b10000010 $
#297000
b10000011 $
#299000
b10000100 $
#301000
b10000101 $
#303000
b10000110 $
#305000
b10000111 $
#307000
b10001000 $
#309000
b10001001 $
#311000
b10001010 $
#313000
b10001011 $
#315000
b10001100 $
#317000
b10001101 $
#319000
b10001110 $
#321000
b10001111 $
#323000
b10010000 $
#325000
b10010001 $
#327000
b10010010 $
#329000
b10010011 $
#331000
b10010100 $
#333000
b10010101 $
#335000
b10010110 $
#337000
b10010111 $
#339000
b10011000 $
#341000
b10011001 $
#343000
b10011010 $
#345000
b10011011 $
#347000
b10011100 $
#349000
b10011101 $
#351000
b10011110 $
#353000
b10011111 $
#355000
b10100000 $
#357000
b10100001 $
#359000
b10100010 $
#361000
b10100011 $
#363000
b10100100 $
#365000
b10100101 $
#367000
b10100110 $
#369000
b10100111 $
#371000
b10101000 $
#373000
b10101001 $
#375000
b10101010 $
#377000
b10101011 $
#379000
b10101100 $
#381000
b10101101 $
#383000
b10101110 $
#385000
b10101111 $
#387000
b10110000 $
#389000
b10110001 $
#391000
b10110010 $
#393000
b10110011 $
#395000
b10110100 $
#397000
b10110101 $
#399000
b10110110 $
#401000
b10110111 $
#403000
b10111000 $
#405000
b10111001 $
#407000
b10111010 $
#409000
b10111011 $
#411000
b10111100 $
#413000
b10111101 $
#415000
b10111110 $
#417000
b10111111 $
#419000
b11000000 $
#421000
b11000001 $
#423000
b11000010 $
#425000
b11000011 $
#427000
b11000100 $
#429000
b11000101 $
#431000
b11000110 $
#433000
b11000111 $
#435000
b11001000 $
#437000
b11001001 $
#439000
b11001010 $
#441000
b11001011 $
#443000
b11001100 $
#445000
b11001101 $
#447000
b11001110 $
#449000
b11001111 $
#451000
b11010000 $
#453000
b11010001 $
#455000
b11010010 $
#457000
b11010011 $
#459000
b11010100 $
#461000
b11010101 $
#463000
b11010110 $
#465000
b11010111 $
#467000
b11011000 $
#469000
b11011001 $
#471000
b11011010 $
#473000
b11011011 $
#475000
b11011100 $
#477000
b11011101 $
#479000
b11011110 $
#481000
b11011111 $
#483000
b11100000 $
#485000
b11100001 $
#487000
b11100010 $
#489000
b11100011 $
#491000
b11100100 $
#493000
b11100101 $
#495000
b11100110 $
#497000
b11100111 $
#499000
b11101000 $
#501000
b11101001 $
#503000
b11101010 $
#505000
b11101011 $
#507000
b11101100 $
#509000
b11101101 $
#511000
b11101110 $
#513000
b11101111 $
#515000
b11110000 $
#517000
b11110001 $
#519000
b11110010 $
#521000
b11110011 $
#523000
b11110100 $
#525000
b11110101 $
#527000
b11110110 $
#529000
b11110111 $
#531000
b11111000 $
#533000
b11111001 $
#535000
b11111010 $
#537000
b11111011 $
#539000
b11111100 $
#541000
b11111101 $
#543000
b11111110 $
#545000
b11111111 $
#547000
b0 $
#548000
0%
1)
#549000
b1 (
#550000
1&
#551000
b10 (
b1 $
#553000
b10 $
b11 (
#555000
b100 (
b11 $
#557000
b100 $
b101 (
#559000
b110 (
b101 $
#561000
b110 $
b111 (
#563000
b1000 (
b111 $
#565000
b1000 $
b1001 (
#567000
b1010 (
b1001 $
#569000
b1010 $
b1011 (
#571000
b1100 (
b1011 $
#573000
b1100 $
b1101 (
#575000
b1110 (
b1101 $
#577000
b1110 $
b1111 (
#579000
b10000 (
b1111 $
#581000
b10000 $
b10001 (
#583000
b10010 (
b10001 $
#585000
b10010 $
b10011 (
#587000
b10100 (
b10011 $
#589000
b10100 $
b10101 (
#591000
b10110 (
b10101 $
#593000
b10110 $
b10111 (
#595000
b11000 (
b10111 $
#597000
b11000 $
b11001 (
#599000
b11010 (
b11001 $
#601000
b11010 $
b11011 (
#603000
b11100 (
b11011 $
#605000
b11100 $
b11101 (
#607000
b11110 (
b11101 $
#609000
b11110 $
b11111 (
#611000
b100000 (
b11111 $
#613000
b100000 $
b100001 (
#615000
b100010 (
b100001 $
#617000
b100010 $
b100011 (
#619000
b100100 (
b100011 $
#621000
b100100 $
b100101 (
#623000
b100110 (
b100101 $
#625000
b100110 $
b100111 (
#627000
b101000 (
b100111 $
#629000
b101000 $
b101001 (
#631000
b101010 (
b101001 $
#633000
b101010 $
b101011 (
#635000
b101100 (
b101011 $
#637000
b101100 $
b101101 (
#639000
b101110 (
b101101 $
#641000
b101110 $
b101111 (
#643000
b110000 (
b101111 $
#645000
b110000 $
b110001 (
#647000
b110010 (
b110001 $
#649000
b110010 $
b110011 (
#651000
b110100 (
b110011 $
#653000
b110100 $
b110101 (
#655000
b110110 (
b110101 $
#657000
b110110 $
b110111 (
#659000
b111000 (
b110111 $
#661000
b111000 $
b111001 (
#663000
b111010 (
b111001 $
#665000
b111010 $
b111011 (
#667000
b111100 (
b111011 $
#669000
b111100 $
b111101 (
#671000
b111110 (
b111101 $
#673000
b111110 $
b111111 (
#675000
b1000000 (
b111111 $
#677000
b1000000 $
b1000001 (
#679000
b1000010 (
b1000001 $
#681000
b1000010 $
b1000011 (
#683000
b1000100 (
b1000011 $
#685000
b1000100 $
b1000101 (
#687000
b1000110 (
b1000101 $
#689000
b1000110 $
b1000111 (
#691000
b1001000 (
b1000111 $
#693000
b1001000 $
b1001001 (
#695000
b1001010 (
b1001001 $
#697000
b1001010 $
b1001011 (
#699000
b1001100 (
b1001011 $
#701000
b1001100 $
b1001101 (
#703000
b1001110 (
b1001101 $
#705000
b1001110 $
b1001111 (
#707000
b1010000 (
b1001111 $
#709000
b1010000 $
b1010001 (
#711000
b1010010 (
b1010001 $
#713000
b1010010 $
b1010011 (
#715000
b1010100 (
b1010011 $
#717000
b1010100 $
b1010101 (
#719000
b1010110 (
b1010101 $
#721000
b1010110 $
b1010111 (
#723000
b1011000 (
b1010111 $
#725000
b1011000 $
b1011001 (
#727000
b1011010 (
b1011001 $
#729000
b1011010 $
b1011011 (
#731000
b1011100 (
b1011011 $
#733000
b1011100 $
b1011101 (
#735000
b1011110 (
b1011101 $
#737000
b1011110 $
b1011111 (
#739000
b1100000 (
b1011111 $
#741000
b1100000 $
b1100001 (
#743000
b1100010 (
b1100001 $
#745000
b1100010 $
b1100011 (
#747000
b1100100 (
b1100011 $
#749000
b1100100 $
b1100101 (
#751000
b1100110 (
b1100101 $
#753000
b1100110 $
b1100111 (
#755000
b1101000 (
b1100111 $
#757000
b1101000 $
b1101001 (
#759000
b1101010 (
b1101001 $
#761000
b1101010 $
b1101011 (
#763000
b1101100 (
b1101011 $
#765000
b1101100 $
b1101101 (
#767000
b1101110 (
b1101101 $
#769000
b1101110 $
b1101111 (
#771000
b1110000 (
b1101111 $
#773000
b1110000 $
b1110001 (
#775000
b1110010 (
b1110001 $
#777000
b1110010 $
b1110011 (
#779000
b1110100 (
b1110011 $
#781000
b1110100 $
b1110101 (
#783000
b1110110 (
b1110101 $
#785000
b1110110 $
b1110111 (
#787000
b1111000 (
b1110111 $
#789000
b1111000 $
b1111001 (
#791000
b1111010 (
b1111001 $
#793000
b1111010 $
b1111011 (
#795000
b1111100 (
b1111011 $
#797000
b1111100 $
b1111101 (
#799000
b1111110 (
b1111101 $
#801000
b1111110 $
b1111111 (
#803000
b10000000 (
b1111111 $
#805000
b10000000 $
b10000001 (
#807000
b10000010 (
b10000001 $
#809000
b10000010 $
b10000011 (
#811000
b10000100 (
b10000011 $
#813000
b10000100 $
b10000101 (
#815000
b10000110 (
b10000101 $
#817000
b10000110 $
b10000111 (
#819000
b10001000 (
b10000111 $
#821000
b10001000 $
b10001001 (
#823000
b10001010 (
b10001001 $
#825000
b10001010 $
b10001011 (
#827000
b10001100 (
b10001011 $
#829000
b10001100 $
b10001101 (
#831000
b10001110 (
b10001101 $
#833000
b10001110 $
b10001111 (
#835000
b10010000 (
b10001111 $
#837000
b10010000 $
b10010001 (
#839000
b10010010 (
b10010001 $
#841000
b10010010 $
b10010011 (
#843000
b10010100 (
b10010011 $
#845000
b10010100 $
b10010101 (
#847000
b10010110 (
b10010101 $
#849000
b10010110 $
b10010111 (
#851000
b10011000 (
b10010111 $
#853000
b10011000 $
b10011001 (
#855000
b10011010 (
b10011001 $
#857000
b10011010 $
b10011011 (
#859000
b10011100 (
b10011011 $
#861000
b10011100 $
b10011101 (
#863000
b10011110 (
b10011101 $
#865000
b10011110 $
b10011111 (
#867000
b10100000 (
b10011111 $
#869000
b10100000 $
b10100001 (
#871000
b10100010 (
b10100001 $
#873000
b10100010 $
b10100011 (
#875000
b10100100 (
b10100011 $
#877000
b10100100 $
b10100101 (
#879000
b10100110 (
b10100101 $
#881000
b10100110 $
b10100111 (
#883000
b10101000 (
b10100111 $
#885000
b10101000 $
b10101001 (
#887000
b10101010 (
b10101001 $
#889000
b10101010 $
b10101011 (
#891000
b10101100 (
b10101011 $
#893000
b10101100 $
b10101101 (
#895000
b10101110 (
b10101101 $
#897000
b10101110 $
b10101111 (
#899000
b10110000 (
b10101111 $
#901000
b10110000 $
b10110001 (
#903000
b10110010 (
b10110001 $
#905000
b10110010 $
b10110011 (
#907000
b10110100 (
b10110011 $
#909000
b10110100 $
b10110101 (
#911000
b10110110 (
b10110101 $
#913000
b10110110 $
b10110111 (
#915000
b10111000 (
b10110111 $
#917000
b10111000 $
b10111001 (
#919000
b10111010 (
b10111001 $
#921000
b10111010 $
b10111011 (
#923000
b10111100 (
b10111011 $
#925000
b10111100 $
b10111101 (
#927000
b10111110 (
b10111101 $
#929000
b10111110 $
b10111111 (
#931000
b11000000 (
b10111111 $
#933000
b11000000 $
b11000001 (
#935000
b11000010 (
b11000001 $
#937000
b11000010 $
b11000011 (
#939000
b11000100 (
b11000011 $
#941000
b11000100 $
b11000101 (
#943000
b11000110 (
b11000101 $
#945000
b11000110 $
b11000111 (
#947000
b11001000 (
b11000111 $
#949000
b11001000 $
b11001001 (
#951000
b11001010 (
b11001001 $
#953000
b11001010 $
b11001011 (
#955000
b11001100 (
b11001011 $
#957000
b11001100 $
b11001101 (
#959000
b11001110 (
b11001101 $
#961000
b11001110 $
b11001111 (
#963000
b11010000 (
b11001111 $
#965000
b11010000 $
b11010001 (
#967000
b11010010 (
b11010001 $
#969000
b11010010 $
b11010011 (
#971000
b11010100 (
b11010011 $
#973000
b11010100 $
b11010101 (
#975000
b11010110 (
b11010101 $
#977000
b11010110 $
b11010111 (
#979000
b11011000 (
b11010111 $
#981000
b11011000 $
b11011001 (
#983000
b11011010 (
b11011001 $
#985000
b11011010 $
b11011011 (
#987000
b11011100 (
b11011011 $
#989000
b11011100 $
b11011101 (
#991000
b11011110 (
b11011101 $
#993000
b11011110 $
b11011111 (
#995000
b11100000 (
b11011111 $
#997000
b11100000 $
b11100001 (
#999000
b11100010 (
b11100001 $
#1001000
b11100010 $
b11100011 (
#1003000
b11100100 (
b11100011 $
#1005000
b11100100 $
b11100101 (
#1007000
b11100110 (
b11100101 $
#1009000
b11100110 $
b11100111 (
#1011000
b11101000 (
b11100111 $
#1013000
b11101000 $
b11101001 (
#1015000
b11101010 (
b11101001 $
#1017000
b11101010 $
b11101011 (
#1019000
b11101100 (
b11101011 $
#1021000
b11101100 $
b11101101 (
#1023000
b11101110 (
b11101101 $
#1025000
b11101110 $
b11101111 (
#1027000
b11110000 (
b11101111 $
#1029000
b11110000 $
b11110001 (
#1031000
b11110010 (
b11110001 $
#1033000
b11110010 $
b11110011 (
#1035000
b11110100 (
b11110011 $
#1037000
b11110100 $
b11110101 (
#1039000
b11110110 (
b11110101 $
#1041000
b11110110 $
b11110111 (
#1043000
b11111000 (
b11110111 $
#1045000
b11111000 $
b11111001 (
#1047000
b11111010 (
b11111001 $
#1049000
b11111010 $
b11111011 (
#1051000
b11111100 (
b11111011 $
#1053000
b11111100 $
b11111101 (
#1055000
b11111110 (
b11111101 $
#1057000
b11111110 $
b11111111 (
#1059000
b0 (
b11111111 $
#1060000
0)
1-
#1061000
b0 $
b1 ,
#1062000
0&
1*
#1063000
b10 ,
b1 (
#1064000
1'
#1065000
b11 ,
b1 $
b10 (
#1067000
b11 (
b100 ,
b10 $
#1069000
b11 $
b100 (
b101 ,
#1071000
b110 ,
b100 $
b101 (
#1073000
b110 (
b111 ,
b101 $
#1075000
b0 $
b111 (
b1000 ,
#1076000
0'
#1077000
b1001 ,
b1000 (
#1079000
b1001 (
b1010 ,
#1081000
b1011 ,
b1010 (
#1083000
b1011 (
b1100 ,
#1085000
b1101 ,
b1100 (
#1087000
b1101 (
b1110 ,
#1089000
b1111 ,
b1110 (
#1091000
b1111 (
b10000 ,
#1093000
b10001 ,
b10000 (
#1095000
b10001 (
b10010 ,
#1097000
b10011 ,
b10010 (
#1099000
b10011 (
b10100 ,
#1101000
b10101 ,
b10100 (
#1103000
b10101 (
b10110 ,
#1105000
b10111 ,
b10110 (
#1107000
b10111 (
b11000 ,
#1109000
b11001 ,
b11000 (
#1111000
b11001 (
b11010 ,
#1113000
b11011 ,
b11010 (
#1115000
b11011 (
b11100 ,
#1117000
b11101 ,
b11100 (
#1119000
b11101 (
b11110 ,
#1121000
b11111 ,
b11110 (
#1123000
b11111 (
b100000 ,
#1125000
b100001 ,
b100000 (
#1127000
b100001 (
b100010 ,
#1129000
b100011 ,
b100010 (
#1131000
b100011 (
b100100 ,
#1133000
b100101 ,
b100100 (
#1135000
b100101 (
b100110 ,
#1137000
b100111 ,
b100110 (
#1139000
b100111 (
b101000 ,
#1141000
b101001 ,
b101000 (
#1143000
b101001 (
b101010 ,
#1145000
b101011 ,
b101010 (
#1147000
b101011 (
b101100 ,
#1149000
b101101 ,
b101100 (
#1151000
b101101 (
b101110 ,
#1153000
b101111 ,
b101110 (
#1155000
b101111 (
b110000 ,
#1157000
b110001 ,
b110000 (
#1159000
b110001 (
b110010 ,
#1161000
b110011 ,
b110010 (
#1163000
b110011 (
b110100 ,
#1165000
b110101 ,
b110100 (
#1167000
b110101 (
b110110 ,
#1169000
b110111 ,
b110110 (
#1171000
b110111 (
b111000 ,
#1173000
b111001 ,
b111000 (
#1175000
b111001 (
b111010 ,
#1177000
b111011 ,
b111010 (
#1179000
b111011 (
b111100 ,
#1181000
b111101 ,
b111100 (
#1183000
b111101 (
b111110 ,
#1185000
b111111 ,
b111110 (
#1187000
b111111 (
b1000000 ,
#1189000
b1000001 ,
b1000000 (
#1191000
b1000001 (
b1000010 ,
#1193000
b1000011 ,
b1000010 (
#1195000
b1000011 (
b1000100 ,
#1197000
b1000101 ,
b1000100 (
#1199000
b1000101 (
b1000110 ,
#1201000
b1000111 ,
b1000110 (
#1203000
b1000111 (
b1001000 ,
#1205000
b1001001 ,
b1001000 (
#1207000
b1001001 (
b1001010 ,
#1209000
b1001011 ,
b1001010 (
#1211000
b1001011 (
b1001100 ,
#1213000
b1001101 ,
b1001100 (
#1215000
b1001101 (
b1001110 ,
#1217000
b1001111 ,
b1001110 (
#1219000
b1001111 (
b1010000 ,
#1221000
b1010001 ,
b1010000 (
#1223000
b1010001 (
b1010010 ,
#1225000
b1010011 ,
b1010010 (
#1227000
b1010011 (
b1010100 ,
#1229000
b1010101 ,
b1010100 (
#1231000
b1010101 (
b1010110 ,
#1233000
b1010111 ,
b1010110 (
#1235000
b1010111 (
b1011000 ,
#1237000
b1011001 ,
b1011000 (
#1239000
b1011001 (
b1011010 ,
#1241000
b1011011 ,
b1011010 (
#1243000
b1011011 (
b1011100 ,
#1245000
b1011101 ,
b1011100 (
#1247000
b1011101 (
b1011110 ,
#1249000
b1011111 ,
b1011110 (
#1251000
b1011111 (
b1100000 ,
#1253000
b1100001 ,
b1100000 (
#1255000
b1100001 (
b1100010 ,
#1257000
b1100011 ,
b1100010 (
#1259000
b1100011 (
b1100100 ,
#1261000
b1100101 ,
b1100100 (
#1263000
b1100101 (
b1100110 ,
#1265000
b1100111 ,
b1100110 (
#1267000
b1100111 (
b1101000 ,
#1269000
b1101001 ,
b1101000 (
#1271000
b1101001 (
b1101010 ,
#1273000
b1101011 ,
b1101010 (
#1275000
b1101011 (
b1101100 ,
#1277000
b1101101 ,
b1101100 (
#1279000
b1101101 (
b1101110 ,
#1281000
b1101111 ,
b1101110 (
#1283000
b1101111 (
b1110000 ,
#1285000
b1110001 ,
b1110000 (
#1287000
b1110001 (
b1110010 ,
#1289000
b1110011 ,
b1110010 (
#1291000
b1110011 (
b1110100 ,
#1293000
b1110101 ,
b1110100 (
#1295000
b1110101 (
b1110110 ,
#1297000
b1110111 ,
b1110110 (
#1299000
b1110111 (
b1111000 ,
#1301000
b1111001 ,
b1111000 (
#1303000
b1111001 (
b1111010 ,
#1305000
b1111011 ,
b1111010 (
#1307000
b1111011 (
b1111100 ,
#1309000
b1111101 ,
b1111100 (
#1311000
b1111101 (
b1111110 ,
#1313000
b1111111 ,
b1111110 (
#1315000
b1111111 (
b10000000 ,
#1317000
b10000001 ,
b10000000 (
#1319000
b10000001 (
b10000010 ,
#1321000
b10000011 ,
b10000010 (
#1323000
b10000011 (
b10000100 ,
#1325000
b10000101 ,
b10000100 (
#1327000
b10000101 (
b10000110 ,
#1329000
b10000111 ,
b10000110 (
#1331000
b10000111 (
b10001000 ,
#1333000
b10001001 ,
b10001000 (
#1335000
b10001001 (
b10001010 ,
#1337000
b10001011 ,
b10001010 (
#1339000
b10001011 (
b10001100 ,
#1341000
b10001101 ,
b10001100 (
#1343000
b10001101 (
b10001110 ,
#1345000
b10001111 ,
b10001110 (
#1347000
b10001111 (
b10010000 ,
#1349000
b10010001 ,
b10010000 (
#1351000
b10010001 (
b10010010 ,
#1353000
b10010011 ,
b10010010 (
#1355000
b10010011 (
b10010100 ,
#1357000
b10010101 ,
b10010100 (
#1359000
b10010101 (
b10010110 ,
#1361000
b10010111 ,
b10010110 (
#1363000
b10010111 (
b10011000 ,
#1365000
b10011001 ,
b10011000 (
#1367000
b10011001 (
b10011010 ,
#1369000
b10011011 ,
b10011010 (
#1371000
b10011011 (
b10011100 ,
#1373000
b10011101 ,
b10011100 (
#1375000
b10011101 (
b10011110 ,
#1377000
b10011111 ,
b10011110 (
#1379000
b10011111 (
b10100000 ,
#1381000
b10100001 ,
b10100000 (
#1383000
b10100001 (
b10100010 ,
#1385000
b10100011 ,
b10100010 (
#1387000
b10100011 (
b10100100 ,
#1389000
b10100101 ,
b10100100 (
#1391000
b10100101 (
b10100110 ,
#1393000
b10100111 ,
b10100110 (
#1395000
b10100111 (
b10101000 ,
#1397000
b10101001 ,
b10101000 (
#1399000
b10101001 (
b10101010 ,
#1401000
b10101011 ,
b10101010 (
#1403000
b10101011 (
b10101100 ,
#1405000
b10101101 ,
b10101100 (
#1407000
b10101101 (
b10101110 ,
#1409000
b10101111 ,
b10101110 (
#1411000
b10101111 (
b10110000 ,
#1413000
b10110001 ,
b10110000 (
#1415000
b10110001 (
b10110010 ,
#1417000
b10110011 ,
b10110010 (
#1419000
b10110011 (
b10110100 ,
#1421000
b10110101 ,
b10110100 (
#1423000
b10110101 (
b10110110 ,
#1425000
b10110111 ,
b10110110 (
#1427000
b10110111 (
b10111000 ,
#1429000
b10111001 ,
b10111000 (
#1431000
b10111001 (
b10111010 ,
#1433000
b10111011 ,
b10111010 (
#1435000
b10111011 (
b10111100 ,
#1437000
b10111101 ,
b10111100 (
#1439000
b10111101 (
b10111110 ,
#1441000
b10111111 ,
b10111110 (
#1443000
b10111111 (
b11000000 ,
#1445000
b11000001 ,
b11000000 (
#1447000
b11000001 (
b11000010 ,
#1449000
b11000011 ,
b11000010 (
#1451000
b11000011 (
b11000100 ,
#1453000
b11000101 ,
b11000100 (
#1455000
b11000101 (
b11000110 ,
#1457000
b11000111 ,
b11000110 (
#1459000
b11000111 (
b11001000 ,
#1461000
b11001001 ,
b11001000 (
#1463000
b11001001 (
b11001010 ,
#1465000
b11001011 ,
b11001010 (
#1467000
b11001011 (
b11001100 ,
#1469000
b11001101 ,
b11001100 (
#1471000
b11001101 (
b11001110 ,
#1473000
b11001111 ,
b11001110 (
#1475000
b11001111 (
b11010000 ,
#1477000
b11010001 ,
b11010000 (
#1479000
b11010001 (
b11010010 ,
#1481000
b11010011 ,
b11010010 (
#1483000
b11010011 (
b11010100 ,
#1485000
b11010101 ,
b11010100 (
#1487000
b11010101 (
b11010110 ,
#1489000
b11010111 ,
b11010110 (
#1491000
b11010111 (
b11011000 ,
#1493000
b11011001 ,
b11011000 (
#1495000
b11011001 (
b11011010 ,
#1497000
b11011011 ,
b11011010 (
#1499000
b11011011 (
b11011100 ,
#1501000
b11011101 ,
b11011100 (
#1503000
b11011101 (
b11011110 ,
#1505000
b11011111 ,
b11011110 (
#1507000
b11011111 (
b11100000 ,
#1509000
b11100001 ,
b11100000 (
#1511000
b11100001 (
b11100010 ,
#1513000
b11100011 ,
b11100010 (
#1515000
b11100011 (
b11100100 ,
#1517000
b11100101 ,
b11100100 (
#1519000
b11100101 (
b11100110 ,
#1521000
b11100111 ,
b11100110 (
#1523000
b11100111 (
b11101000 ,
#1525000
b11101001 ,
b11101000 (
#1527000
b11101001 (
b11101010 ,
#1529000
b11101011 ,
b11101010 (
#1531000
b11101011 (
b11101100 ,
#1533000
b11101101 ,
b11101100 (
#1535000
b11101101 (
b11101110 ,
#1537000
b11101111 ,
b11101110 (
#1539000
b11101111 (
b11110000 ,
#1541000
b11110001 ,
b11110000 (
#1543000
b11110001 (
b11110010 ,
#1545000
b11110011 ,
b11110010 (
#1547000
b11110011 (
b11110100 ,
#1549000
b11110101 ,
b11110100 (
#1551000
b11110101 (
b11110110 ,
#1553000
b11110111 ,
b11110110 (
#1555000
b11110111 (
b11111000 ,
#1557000
b11111001 ,
b11111000 (
#1559000
b11111001 (
b11111010 ,
#1561000
b11111011 ,
b11111010 (
#1563000
b11111011 (
b11111100 ,
#1565000
b11111101 ,
b11111100 (
#1567000
b11111101 (
b11111110 ,
#1569000
b11111111 ,
b11111110 (
#1571000
b11111111 (
b0 ,
#1572000
11
0-
#1573000
b1 0
b0 (
#1574000
0*
1.
#1575000
b1 ,
b10 0
#1576000
1+
#1577000
b1 (
b11 0
b10 ,
#1579000
b11 ,
b100 0
b10 (
#1581000
b11 (
b101 0
b100 ,
#1583000
b101 ,
b110 0
b100 (
#1585000
b101 (
b111 0
b110 ,
#1587000
b111 ,
b1000 0
b0 (
#1588000
0+
#1589000
b1001 0
b1000 ,
#1591000
b1001 ,
b1010 0
#1593000
b1011 0
b1010 ,
#1595000
b1011 ,
b1100 0
#1597000
b1101 0
b1100 ,
#1599000
b1101 ,
b1110 0
#1601000
b1111 0
b1110 ,
#1603000
b1111 ,
b10000 0
#1605000
b10001 0
b10000 ,
#1607000
b10001 ,
b10010 0
#1609000
b10011 0
b10010 ,
#1611000
b10011 ,
b10100 0
#1613000
b10101 0
b10100 ,
#1615000
b10101 ,
b10110 0
#1617000
b10111 0
b10110 ,
#1619000
b10111 ,
b11000 0
#1621000
b11001 0
b11000 ,
#1623000
b11001 ,
b11010 0
#1625000
b11011 0
b11010 ,
#1627000
b11011 ,
b11100 0
#1629000
b11101 0
b11100 ,
#1631000
b11101 ,
b11110 0
#1633000
b11111 0
b11110 ,
#1635000
b11111 ,
b100000 0
#1637000
b100001 0
b100000 ,
#1639000
b100001 ,
b100010 0
#1641000
b100011 0
b100010 ,
#1643000
b100011 ,
b100100 0
#1645000
b100101 0
b100100 ,
#1647000
b100101 ,
b100110 0
#1649000
b100111 0
b100110 ,
#1651000
b100111 ,
b101000 0
#1653000
b101001 0
b101000 ,
#1655000
b101001 ,
b101010 0
#1657000
b101011 0
b101010 ,
#1659000
b101011 ,
b101100 0
#1661000
b101101 0
b101100 ,
#1663000
b101101 ,
b101110 0
#1665000
b101111 0
b101110 ,
#1667000
b101111 ,
b110000 0
#1669000
b110001 0
b110000 ,
#1671000
b110001 ,
b110010 0
#1673000
b110011 0
b110010 ,
#1675000
b110011 ,
b110100 0
#1677000
b110101 0
b110100 ,
#1679000
b110101 ,
b110110 0
#1681000
b110111 0
b110110 ,
#1683000
b110111 ,
b111000 0
#1685000
b111001 0
b111000 ,
#1687000
b111001 ,
b111010 0
#1689000
b111011 0
b111010 ,
#1691000
b111011 ,
b111100 0
#1693000
b111101 0
b111100 ,
#1695000
b111101 ,
b111110 0
#1697000
b111111 0
b111110 ,
#1699000
b111111 ,
b1000000 0
#1701000
b1000001 0
b1000000 ,
#1703000
b1000001 ,
b1000010 0
#1705000
b1000011 0
b1000010 ,
#1707000
b1000011 ,
b1000100 0
#1709000
b1000101 0
b1000100 ,
#1711000
b1000101 ,
b1000110 0
#1713000
b1000111 0
b1000110 ,
#1715000
b1000111 ,
b1001000 0
#1717000
b1001001 0
b1001000 ,
#1719000
b1001001 ,
b1001010 0
#1721000
b1001011 0
b1001010 ,
#1723000
b1001011 ,
b1001100 0
#1725000
b1001101 0
b1001100 ,
#1727000
b1001101 ,
b1001110 0
#1729000
b1001111 0
b1001110 ,
#1731000
b1001111 ,
b1010000 0
#1733000
b1010001 0
b1010000 ,
#1735000
b1010001 ,
b1010010 0
#1737000
b1010011 0
b1010010 ,
#1739000
b1010011 ,
b1010100 0
#1741000
b1010101 0
b1010100 ,
#1743000
b1010101 ,
b1010110 0
#1745000
b1010111 0
b1010110 ,
#1747000
b1010111 ,
b1011000 0
#1749000
b1011001 0
b1011000 ,
#1751000
b1011001 ,
b1011010 0
#1753000
b1011011 0
b1011010 ,
#1755000
b1011011 ,
b1011100 0
#1757000
b1011101 0
b1011100 ,
#1759000
b1011101 ,
b1011110 0
#1761000
b1011111 0
b1011110 ,
#1763000
b1011111 ,
b1100000 0
#1765000
b1100001 0
b1100000 ,
#1767000
b1100001 ,
b1100010 0
#1769000
b1100011 0
b1100010 ,
#1771000
b1100011 ,
b1100100 0
#1773000
b1100101 0
b1100100 ,
